<?xml version="1.0" encoding="utf-8"?>
<!-- Generator: Adobe Illustrator 23.0.6, SVG Export Plug-In . SVG Version: 6.00 Build 0)  -->
<svg version="1.1" id="Capa_2_copia" xmlns="http://www.w3.org/2000/svg" xmlns:xlink="http://www.w3.org/1999/xlink" x="0px"
	 y="0px" viewBox="0 0 512 512" style="enable-background:new 0 0 512 512;" xml:space="preserve">
<style type="text/css">
	.st0{fill:#E8222D;}
	.st1{fill:#6D6D6D;}
</style>
<g>
	<g>
		<path class="st0" d="M398.6,409.5H108.1c-4.2,0-7.7,3.4-7.7,7.7v28.6h305.9v-28.6C406.3,413,402.9,409.5,398.6,409.5z"/>
		<path class="st0" d="M291.2,136.1l-19-61.1c-5.7-18.5-31.9-18.5-37.6,0l-19,61.1H291.2z"/>
		<polygon class="st0" points="312.6,205.2 194.4,205.2 172.9,274.3 334.1,274.3 		"/>
		<polygon class="st0" points="357,343.4 151.5,343.4 133.6,401 374.9,401 		"/>
	</g>
	<path class="st1" d="M398.6,398.5h-14.3L284.1,75.6C279.8,61.9,267.8,53,253.4,53s-26.4,8.9-30.7,22.6L122.4,398.5h-14.3
		c-10.3,0-18.7,8.4-18.7,18.7v25.6v14h14h299.9h14v-14v-25.6C417.3,406.9,408.9,398.5,398.6,398.5z M236,79.8
		c2.6-8.5,10-12.8,17.3-12.8c7.3,0,14.7,4.3,17.3,12.8l98.9,318.7H137.1L236,79.8z M403.3,442.8H103.4v-25.6c0-2.6,2.1-4.7,4.7-4.7
		h290.5c2.6,0,4.7,2.1,4.7,4.7V442.8z"/>
</g>
</svg>
