<?xml version="1.0" encoding="utf-8"?>
<!-- Generator: Adobe Illustrator 23.0.2, SVG Export Plug-In . SVG Version: 6.00 Build 0)  -->
<svg version="1.1" id="Capa_12" xmlns="http://www.w3.org/2000/svg" xmlns:xlink="http://www.w3.org/1999/xlink" x="0px" y="0px"
	 viewBox="0 0 512 512" style="enable-background:new 0 0 512 512;" xml:space="preserve">
<style type="text/css">
	.st0{fill:#D7E5F5;}
	.st1{fill:#D06557;}
	.st2{fill:#91602E;}
	.st3{fill:#E8222D;}
	.st4{fill:#6D6D6D;stroke:#652440;stroke-width:0.25;stroke-miterlimit:10;}
</style>
<g>
	<g>
		<path class="st0" d="M256,87.6"/>
		<path class="st1" d="M355.9,191"/>
		<path class="st2" d="M342.9,178"/>
		<path class="st3" d="M256,33.7C133.2,33.7,33.7,133.2,33.7,256S133.2,478.3,256,478.3S478.3,378.8,478.3,256S378.8,33.7,256,33.7z
			 M256,424.3C163.1,424.3,87.6,349,87.6,256S163,87.6,256,87.6c92.9,0,168.3,75.3,168.3,168.4C424.3,348.9,348.9,424.3,256,424.3z"
			/>
	</g>
	<path class="st4" d="M256,26C129.1,26,26,129.1,26,256c0,126.7,103.1,230,230,230c126.7,0,230-103.1,230-230S382.7,26,256,26
		L256,26z M256,470.6c-118.3,0-214.7-96.3-214.7-214.6S137.6,41.3,256,41.3S470.6,137.7,470.6,256S374.3,470.6,256,470.6L256,470.6z
		"/>
	<path class="st4" d="M256,80c-97,0-176,79-176,176s79,176,176,176s176-79,176-176S353,80,256,80L256,80z M256,416.7
		c-88.6,0-160.7-72.1-160.7-160.7S167.4,95.3,256,95.3S416.7,167.4,416.7,256S344.6,416.7,256,416.7L256,416.7z"/>
	<g>
		<path class="st4" d="M256.6,141.6c-41.4,0-75.2,33.7-75.2,75.2v7.9h42.8v-7.9c0-17.8,14.5-32.3,32.3-32.3s32.3,14.5,32.3,32.3
			c0,11.5-6.1,22.2-16.1,28c-23.3,13.6-37.7,38.7-37.7,65.6v8.4h42.8v-8.4c0-11.8,6.4-22.7,16.5-28.7c23-13.4,37.3-38.4,37.3-64.9
			C331.7,175.3,298,141.6,256.6,141.6z"/>
		<rect x="235.1" y="329.9" class="st4" width="42.8" height="42.8"/>
	</g>
</g>
</svg>
