<?xml version="1.0" encoding="utf-8"?>
<!-- Generator: Adobe Illustrator 23.0.2, SVG Export Plug-In . SVG Version: 6.00 Build 0)  -->
<svg version="1.1" id="Capa_1_copia" xmlns="http://www.w3.org/2000/svg" xmlns:xlink="http://www.w3.org/1999/xlink" x="0px"
	 y="0px" viewBox="0 0 1125 610" style="enable-background:new 0 0 1125 610;" xml:space="preserve">
<style type="text/css">
	.st0{display:none;}
	.st1{display:inline;}
	.st2{fill:#C62730;}
	.st3{fill:#6D6D6D;}
	.st4{fill:#848484;}
	.st5{fill:#CCFFFF;}
	.st6{fill:#FF2026;}
	.st7{fill:#FFFFFF;}
	.st8{fill:url(#SVGID_1_);}
	.st9{fill:url(#SVGID_2_);}
	.st10{fill:url(#SVGID_3_);}
	.st11{fill:url(#SVGID_4_);}
	.st12{fill:url(#SVGID_5_);}
	.st13{fill:url(#SVGID_6_);}
</style>
<g class="st0">
	
		<image style="display:inline;overflow:visible;enable-background:new    ;" width="1920" height="1080" xlink:href="976A598B.jpg"  transform="matrix(1 0 0 1 -397 -235)">
	</image>
	<g class="st1">
		<path class="st2" d="M538.3,269.9c-1.6,0-3.1-0.3-4.4-0.8c-1.3-0.5-2.4-1.2-3.3-2.2l2.5-4.4c0.6,0.8,1.3,1.4,2.2,1.8
			s1.8,0.6,2.6,0.6c0.9,0,1.6-0.3,2.2-0.9c0.6-0.6,0.8-1.4,0.8-2.4c0-0.9-0.2-1.6-0.7-2.3c-0.5-0.6-1.1-1.2-1.8-1.8
			c-0.7-0.6-1.5-1.1-2.3-1.7s-1.6-1.3-2.3-2c-0.7-0.8-1.3-1.7-1.8-2.7s-0.7-2.3-0.7-3.8c0-1.1,0.2-2.2,0.6-3.2
			c0.4-1,0.9-1.9,1.6-2.7c0.7-0.8,1.6-1.4,2.6-1.8s2.2-0.7,3.5-0.7s2.5,0.2,3.6,0.6s2.1,1,2.9,1.8l-2.2,4.4
			c-1.1-1.2-2.5-1.8-4.1-1.8c-0.8,0-1.5,0.3-2,0.8c-0.5,0.6-0.8,1.3-0.8,2.2c0,0.8,0.2,1.5,0.7,2.1s1.1,1.2,1.8,1.7
			c0.7,0.6,1.5,1.1,2.3,1.7s1.6,1.3,2.3,2.1s1.3,1.7,1.8,2.8s0.7,2.4,0.7,3.9c0,1.3-0.2,2.4-0.6,3.5c-0.4,1.1-1,2-1.7,2.7
			c-0.7,0.8-1.6,1.4-2.7,1.8C540.7,269.7,539.6,269.9,538.3,269.9z"/>
		<path class="st2" d="M550.1,269.3v-29.9h5.7v29.9H550.1z"/>
		<path class="st2" d="M566.4,269.9c-1.6,0-3.1-0.3-4.4-0.8c-1.3-0.5-2.4-1.2-3.3-2.2l2.5-4.4c0.6,0.8,1.3,1.4,2.2,1.8
			s1.8,0.6,2.6,0.6c0.9,0,1.6-0.3,2.2-0.9c0.6-0.6,0.8-1.4,0.8-2.4c0-0.9-0.2-1.6-0.7-2.3c-0.5-0.6-1.1-1.2-1.8-1.8
			c-0.7-0.6-1.5-1.1-2.3-1.7s-1.6-1.3-2.3-2c-0.7-0.8-1.3-1.7-1.8-2.7s-0.7-2.3-0.7-3.8c0-1.1,0.2-2.2,0.6-3.2
			c0.4-1,0.9-1.9,1.6-2.7c0.7-0.8,1.6-1.4,2.6-1.8s2.2-0.7,3.5-0.7s2.5,0.2,3.6,0.6s2.1,1,2.9,1.8l-2.2,4.4
			c-1.1-1.2-2.5-1.8-4.1-1.8c-0.8,0-1.5,0.3-2,0.8c-0.5,0.6-0.8,1.3-0.8,2.2c0,0.8,0.2,1.5,0.7,2.1s1.1,1.2,1.8,1.7
			c0.7,0.6,1.5,1.1,2.3,1.7s1.6,1.3,2.3,2.1s1.3,1.7,1.8,2.8s0.7,2.4,0.7,3.9c0,1.3-0.2,2.4-0.6,3.5c-0.4,1.1-1,2-1.7,2.7
			c-0.7,0.8-1.6,1.4-2.7,1.8C568.8,269.7,567.7,269.9,566.4,269.9z"/>
		<path class="st2" d="M580.7,269.3v-25h-4.5v-5h14.7v5h-4.5v25H580.7z"/>
		<path class="st2" d="M594.1,269.3v-29.9h13.1v5h-7.5v7.2h7.1v5h-7.1v7.8h7.5v5L594.1,269.3L594.1,269.3z"/>
		<path class="st2" d="M628.4,269.3v-17.7l-5,17.7h-1.9l-4.9-17.7v17.7H611v-29.9h7.2l4.3,15.3l4.4-15.3h7v29.9H628.4z"/>
		<path class="st2" d="M649.5,269.3l-0.9-5.5H643l-0.9,5.5h-5.8l6.2-29.9h6.5l6.3,29.9H649.5z M645.9,245.7l-2.2,13.1h4.3
			L645.9,245.7z"/>
	</g>
	<g class="st1">
		<path class="st2" d="M542.6,308l-0.9-5.5h-5.6l-0.9,5.5h-5.8l6.2-29.9h6.5l6.3,29.9H542.6z M538.9,284.4l-2.2,13.1h4.3
			L538.9,284.4z"/>
		<path class="st2" d="M562.5,308l-6.1-15.8V308h-5.7v-30h5.7l5.7,15.3V278h5.7v29.9L562.5,308L562.5,308z"/>
		<path class="st2" d="M575.5,308v-25H571v-5h14.7v5h-4.5v25H575.5z"/>
		<path class="st2" d="M588.9,308v-30h5.7v29.9L588.9,308L588.9,308z"/>
		<path class="st2" d="M607.6,308.5c-1.6,0-3.1-0.4-4.2-1.2c-1.2-0.8-2.2-1.9-2.9-3.2c-0.8-1.4-1.3-3-1.7-4.9s-0.5-4-0.5-6.2
			s0.2-4.3,0.5-6.2c0.4-1.9,0.9-3.5,1.7-4.9s1.7-2.5,2.9-3.2c1.2-0.8,2.6-1.2,4.2-1.2c1.2,0,2.2,0.2,3.1,0.7c0.9,0.4,1.6,1,2.1,1.7
			c0.6,0.7,1,1.4,1.4,2.3c0.4,0.8,0.7,1.6,0.9,2.4l-4.5,1.7c-0.3-1.1-0.7-2-1.1-2.7c-0.4-0.7-1-1-1.9-1c-0.7,0-1.3,0.3-1.7,0.8
			s-0.8,1.2-1.1,2.2c-0.3,0.9-0.5,2-0.6,3.3s-0.2,2.7-0.2,4.2s0.1,2.9,0.2,4.2c0.1,1.3,0.3,2.4,0.6,3.3s0.7,1.6,1.1,2.2
			c0.4,0.5,1,0.8,1.7,0.8c0.9,0,1.6-0.4,2.1-1.2c0.4-0.8,0.8-1.9,1-3.1l4.5,1.7c-0.2,0.9-0.5,1.8-0.9,2.6c-0.4,0.9-0.8,1.7-1.4,2.5
			c-0.6,0.8-1.3,1.4-2.2,1.9C609.9,308.3,608.9,308.5,607.6,308.5z"/>
		<path class="st2" d="M626.8,308.5c-1.6,0-3.1-0.4-4.2-1.2c-1.2-0.8-2.1-1.9-2.9-3.3c-0.7-1.4-1.3-3-1.7-4.9s-0.5-3.9-0.5-6.1
			s0.2-4.2,0.5-6.1c0.4-1.9,0.9-3.5,1.7-4.9c0.7-1.4,1.7-2.5,2.9-3.3s2.6-1.2,4.2-1.2c1.6,0,3.1,0.4,4.2,1.2
			c1.2,0.8,2.1,1.9,2.9,3.3c0.8,1.4,1.3,3,1.7,4.9s0.5,3.9,0.5,6.1s-0.2,4.3-0.5,6.1c-0.4,1.9-0.9,3.5-1.7,4.9s-1.7,2.5-2.9,3.3
			C629.9,308.1,628.5,308.5,626.8,308.5z M626.8,303.5c0.7,0,1.2-0.3,1.7-0.8c0.4-0.5,0.8-1.3,1.1-2.2c0.3-0.9,0.5-2,0.6-3.3
			s0.2-2.6,0.2-4.1s-0.1-2.9-0.2-4.2c-0.1-1.3-0.3-2.4-0.6-3.3s-0.7-1.7-1.1-2.2c-0.4-0.5-1-0.8-1.7-0.8s-1.2,0.3-1.7,0.8
			c-0.4,0.5-0.8,1.3-1.1,2.2c-0.3,0.9-0.5,2.1-0.6,3.3c-0.1,1.3-0.2,2.7-0.2,4.2s0.1,2.8,0.2,4.1c0.1,1.3,0.3,2.4,0.6,3.3
			s0.7,1.7,1.1,2.2C625.6,303.2,626.2,303.5,626.8,303.5z"/>
		<path class="st2" d="M650.6,308l-3.2-11h-1.8v11h-5.7v-30h8.4c1.2,0,2.3,0.2,3.3,0.7c1,0.4,1.9,1.1,2.6,1.9
			c0.7,0.8,1.3,1.8,1.7,2.9s0.6,2.4,0.6,3.8c0,1.3-0.1,2.4-0.4,3.3c-0.2,0.9-0.6,1.7-0.9,2.4c-0.4,0.7-0.8,1.2-1.3,1.6
			s-0.9,0.7-1.3,0.9l4.2,12.4L650.6,308L650.6,308z M647.4,292c1,0,1.9-0.4,2.4-1.2c0.6-0.8,0.9-1.9,0.9-3.3s-0.3-2.5-0.9-3.3
			c-0.6-0.8-1.4-1.2-2.4-1.2h-1.8v9H647.4z"/>
		<path class="st2" d="M671.3,308l-3.2-11h-1.8v11h-5.7v-30h8.4c1.2,0,2.3,0.2,3.3,0.7s1.9,1.1,2.6,1.9c0.7,0.8,1.3,1.8,1.7,2.9
			s0.6,2.4,0.6,3.8c0,1.3-0.1,2.4-0.4,3.3c-0.2,0.9-0.6,1.7-0.9,2.4c-0.4,0.7-0.8,1.2-1.3,1.6s-0.9,0.7-1.3,0.9l4.2,12.4L671.3,308
			L671.3,308z M668,292c1,0,1.9-0.4,2.4-1.2c0.6-0.8,0.9-1.9,0.9-3.3s-0.3-2.5-0.9-3.3c-0.6-0.8-1.4-1.2-2.4-1.2h-1.8v9H668z"/>
		<path class="st2" d="M689.7,308.5c-1.1,0-2.2-0.2-3.2-0.5c-1-0.4-1.9-0.9-2.7-1.7c-0.8-0.7-1.4-1.7-1.9-2.9
			c-0.5-1.2-0.7-2.5-0.7-4.2V278h5.7v21.5c0,1.5,0.3,2.5,0.8,3.1s1.2,0.9,2.1,0.9c0.9,0,1.6-0.3,2.1-0.9s0.8-1.6,0.8-3.1V278h5.7
			v21.3c0,1.6-0.2,3-0.7,4.2s-1.1,2.1-1.9,2.9c-0.8,0.7-1.7,1.3-2.7,1.7C691.9,308.3,690.8,308.5,689.7,308.5z"/>
		<path class="st2" d="M702.9,308v-30h8.1c1.5,0,2.7,0.3,3.8,0.8s1.9,1.2,2.6,2.1c0.7,0.9,1.2,1.9,1.5,3s0.5,2.3,0.5,3.6
			c0,1.3-0.2,2.5-0.5,3.6s-0.8,2.1-1.5,3s-1.6,1.6-2.6,2.1c-1.1,0.5-2.3,0.8-3.8,0.8h-2.4v11H702.9z M710.4,292c1,0,1.9-0.4,2.4-1.2
			c0.6-0.8,0.9-1.9,0.9-3.3s-0.3-2.5-0.9-3.3c-0.6-0.8-1.4-1.2-2.4-1.2h-1.8v9H710.4z"/>
		<path class="st2" d="M731.1,308.5c-1.6,0-3.1-0.4-4.2-1.2c-1.2-0.8-2.2-1.9-2.9-3.2c-0.8-1.4-1.3-3-1.7-4.9s-0.5-4-0.5-6.2
			s0.2-4.3,0.5-6.2c0.4-1.9,0.9-3.5,1.7-4.9s1.7-2.5,2.9-3.2c1.2-0.8,2.6-1.2,4.2-1.2c1.2,0,2.2,0.2,3.1,0.7c0.9,0.4,1.6,1,2.1,1.7
			c0.6,0.7,1,1.4,1.4,2.3c0.4,0.8,0.7,1.6,0.9,2.4l-4.5,1.7c-0.3-1.1-0.7-2-1.1-2.7c-0.4-0.7-1-1-1.9-1c-0.7,0-1.3,0.3-1.7,0.8
			s-0.8,1.2-1.1,2.2c-0.3,0.9-0.5,2-0.6,3.3s-0.2,2.7-0.2,4.2s0.1,2.9,0.2,4.2c0.1,1.3,0.3,2.4,0.6,3.3s0.7,1.6,1.1,2.2
			c0.4,0.5,1,0.8,1.7,0.8c0.9,0,1.6-0.4,2.1-1.2c0.4-0.8,0.8-1.9,1-3.1l4.5,1.7c-0.2,0.9-0.5,1.8-0.9,2.6c-0.4,0.9-0.8,1.7-1.4,2.5
			c-0.6,0.8-1.3,1.4-2.2,1.9C733.4,308.3,732.4,308.5,731.1,308.5z"/>
		<path class="st2" d="M741.9,308v-30h5.7v29.9L741.9,308L741.9,308z"/>
		<path class="st2" d="M760.7,308.5c-1.6,0-3.1-0.4-4.2-1.2c-1.2-0.8-2.1-1.9-2.9-3.3c-0.7-1.4-1.3-3-1.7-4.9s-0.5-3.9-0.5-6.1
			s0.2-4.2,0.5-6.1c0.4-1.9,0.9-3.5,1.7-4.9c0.7-1.4,1.7-2.5,2.9-3.3s2.6-1.2,4.2-1.2c1.6,0,3.1,0.4,4.2,1.2
			c1.2,0.8,2.1,1.9,2.9,3.3c0.8,1.4,1.3,3,1.7,4.9s0.5,3.9,0.5,6.1s-0.2,4.3-0.5,6.1c-0.4,1.9-0.9,3.5-1.7,4.9s-1.7,2.5-2.9,3.3
			C763.7,308.1,762.3,308.5,760.7,308.5z M760.7,303.5c0.7,0,1.2-0.3,1.7-0.8c0.4-0.5,0.8-1.3,1.1-2.2c0.3-0.9,0.5-2,0.6-3.3
			s0.2-2.6,0.2-4.1s-0.1-2.9-0.2-4.2c-0.1-1.3-0.3-2.4-0.6-3.3s-0.7-1.7-1.1-2.2c-0.4-0.5-1-0.8-1.7-0.8s-1.2,0.3-1.7,0.8
			c-0.4,0.5-0.8,1.3-1.1,2.2c-0.3,0.9-0.5,2.1-0.6,3.3c-0.1,1.3-0.2,2.7-0.2,4.2s0.1,2.8,0.2,4.1c0.1,1.3,0.3,2.4,0.6,3.3
			s0.7,1.7,1.1,2.2C759.5,303.2,760,303.5,760.7,303.5z M761.9,275.5h-3.2l3.5-6.5h4.4L761.9,275.5z"/>
		<path class="st2" d="M785.4,308l-6.1-15.8V308h-5.7v-30h5.7l5.7,15.3V278h5.7v29.9L785.4,308L785.4,308z"/>
	</g>
	<g class="st1">
		<g>
			<path class="st3" d="M470.9,335.7h-85.5c-27.3,0-49.5-22.2-49.5-49.5s22.2-49.5,49.5-49.5h85.5v10h-85.5
				c-21.8,0-39.5,17.7-39.5,39.5s17.7,39.5,39.5,39.5h85.5V335.7z"/>
		</g>
		<g>
			<circle class="st2" cx="457.6" cy="327.3" r="26.7"/>
		</g>
	</g>
	<g class="st1">
		<g>
			<path class="st3" d="M464.2,374.5h-85.5v-10h85.5c21.8,0,39.5-17.7,39.5-39.5s-17.7-39.5-39.5-39.5h-85.5v-10h85.5
				c27.3,0,49.5,22.2,49.5,49.5S491.5,374.5,464.2,374.5z"/>
		</g>
		<g>
			<circle class="st2" cx="392" cy="284" r="26.7"/>
		</g>
	</g>
	<g class="st1">
		<path class="st4" d="M528,328.8c0-1,0.4-1.4,1.3-1.4h28.9c0.5,0,0.9,0.1,1.1,0.4c0.2,0.3,0.3,0.7,0.3,1.1v5.3c0,0.4-0.1,0.7-0.4,1
			c-0.2,0.3-0.6,0.4-1.1,0.4h-21.3v9.1h16.4c0.4,0,0.7,0,1,0.3c0.2,0.2,0.4,0.6,0.4,1.1v5.4c0,0.4-0.1,0.7-0.3,1s-0.5,0.4-1,0.4
			h-16.5v10.9h22.1c0.6,0,0.9,0.1,1.1,0.4c0.2,0.2,0.3,0.6,0.3,1.1v5.5c0,0.8-0.4,1.3-1.3,1.3h-29.7c-0.4,0-0.7-0.1-0.9-0.3
			c-0.3-0.2-0.4-0.5-0.4-1L528,328.8L528,328.8z"/>
		<path class="st4" d="M604.4,349.6c0,2.1-0.3,4.1-0.8,6s-1.3,3.7-2.3,5.3c-1,1.6-2.2,3.1-3.5,4.5c-1.4,1.3-2.9,2.5-4.6,3.4
			c-1.7,0.9-3.5,1.7-5.4,2.2s-3.9,0.8-6,0.8h-14.4c-0.4,0-0.7-0.1-1-0.2c-0.3-0.2-0.4-0.5-0.4-1v-41.8c0-0.9,0.5-1.4,1.4-1.4h14.4
			c3.2,0,6.1,0.6,8.9,1.7c2.7,1.1,5.1,2.7,7.2,4.7c2,2,3.6,4.4,4.8,7.1C603.8,343.6,604.4,346.5,604.4,349.6z M574.7,335.5v28.1h2.8
			c1.5,0,3,0,4.5-0.1c2-0.1,3.8-0.5,5.5-1.2c1.7-0.8,3.1-1.8,4.4-3c1.2-1.3,2.2-2.7,2.9-4.4c0.7-1.7,1-3.5,1-5.4
			c0-2.1-0.4-3.9-1.1-5.7c-0.7-1.7-1.8-3.2-3.1-4.4c-1.3-1.2-2.8-2.2-4.6-2.8c-1.7-0.7-3.6-1-5.5-1L574.7,335.5L574.7,335.5z"/>
		<path class="st4" d="M609.6,349.6c0-2.1,0.3-4.1,0.8-6.1s1.3-3.8,2.3-5.5s2.2-3.2,3.6-4.6c1.4-1.4,2.9-2.6,4.6-3.6
			c1.7-1,3.5-1.8,5.5-2.3c1.9-0.5,4-0.8,6.1-0.8s4.1,0.3,6.1,0.8c1.9,0.5,3.8,1.3,5.5,2.3s3.2,2.2,4.6,3.6c1.4,1.4,2.6,2.9,3.6,4.6
			s1.8,3.5,2.3,5.5s0.8,4,0.8,6.1s-0.3,4.1-0.8,6.1c-0.5,1.9-1.3,3.8-2.3,5.5s-2.2,3.2-3.6,4.6c-1.4,1.4-2.9,2.6-4.6,3.6
			c-1.7,1-3.5,1.8-5.5,2.3c-1.9,0.5-4,0.8-6.1,0.8s-4.1-0.3-6.1-0.8c-1.9-0.5-3.8-1.3-5.5-2.3s-3.2-2.2-4.6-3.6
			c-1.4-1.4-2.6-2.9-3.6-4.6s-1.8-3.5-2.3-5.5C609.8,353.8,609.6,351.7,609.6,349.6z M618.2,349.6c0,2,0.4,3.9,1.1,5.7
			c0.7,1.8,1.7,3.3,3,4.6s2.8,2.3,4.5,3.1c1.7,0.8,3.6,1.1,5.6,1.1s3.9-0.4,5.6-1.1c1.7-0.8,3.2-1.8,4.5-3.1c1.3-1.3,2.3-2.8,3-4.6
			c0.7-1.8,1.1-3.6,1.1-5.7c0-2-0.4-3.9-1.1-5.6c-0.7-1.8-1.7-3.3-3-4.6c-1.3-1.3-2.8-2.3-4.5-3.1c-1.7-0.8-3.6-1.1-5.6-1.1
			s-3.9,0.4-5.6,1.1c-1.7,0.8-3.2,1.8-4.5,3.1c-1.3,1.3-2.3,2.8-3,4.6C618.6,345.7,618.2,347.6,618.2,349.6z"/>
		<path class="st4" d="M664.5,328.7c0-0.4,0.2-0.7,0.4-0.9c0.3-0.2,0.6-0.4,1-0.4h7.5c0.7,0,1.2,0.4,1.4,1.1l10.6,29.5
			c1.8-5,3.6-9.9,5.3-14.7c1.8-4.9,3.6-9.8,5.3-14.7c0.3-0.8,0.7-1.1,1.4-1.1h7.5c0.4,0,0.7,0.1,1,0.4c0.2,0.3,0.4,0.6,0.4,0.9
			c0.7,7,1.5,14,2.2,20.9c0.8,6.9,1.5,13.9,2.3,20.9v0.1c0,0.8-0.4,1.2-1.3,1.2h-5.8c-0.9,0-1.4-0.4-1.4-1.3l-3.1-28.3l-10,27.6
			c-0.1,0.3-0.3,0.5-0.5,0.8c-0.2,0.2-0.4,0.4-0.7,0.4h-5.4c-0.3,0-0.5-0.1-0.7-0.3c-0.2-0.2-0.4-0.5-0.5-0.8
			c-1.6-4.6-3.3-9.2-4.9-13.7c-1.7-4.6-3.3-9.1-5-13.8l-3.1,28.3c0,0.9-0.5,1.3-1.4,1.3h-5.8c-0.9,0-1.3-0.4-1.3-1.3L664.5,328.7z"
			/>
		<path class="st4" d="M717.3,328.8c0-1,0.4-1.4,1.3-1.4h28.9c0.5,0,0.9,0.1,1.1,0.4c0.2,0.3,0.3,0.7,0.3,1.1v5.3
			c0,0.4-0.1,0.7-0.4,1c-0.2,0.3-0.6,0.4-1.1,0.4h-21.3v9.1h16.4c0.4,0,0.7,0,1,0.3c0.2,0.2,0.4,0.6,0.4,1.1v5.4
			c0,0.4-0.1,0.7-0.3,1s-0.5,0.4-1,0.4h-16.5v10.9h22.1c0.6,0,0.9,0.1,1.1,0.4c0.2,0.2,0.3,0.6,0.3,1.1v5.5c0,0.8-0.4,1.3-1.3,1.3
			h-29.7c-0.4,0-0.7-0.1-0.9-0.3c-0.3-0.2-0.4-0.5-0.4-1L717.3,328.8L717.3,328.8z M732.9,314c0.2-0.4,0.4-0.8,0.7-1
			s0.6-0.3,0.9-0.3h5.3c0.3,0,0.5,0.1,0.7,0.2c0.1,0.1,0.2,0.3,0.2,0.6c0,0.2,0,0.3,0,0.5s-0.1,0.4-0.2,0.6l-2.8,6.3
			c-0.4,0.8-0.9,1.3-1.6,1.3h-4.7c-0.3,0-0.6-0.1-0.7-0.2c-0.1-0.2-0.2-0.3-0.2-0.6c0-0.2,0-0.4,0-0.6s0.1-0.4,0.2-0.6L732.9,314z"
			/>
		<path class="st4" d="M752.1,370.8c0.2-0.3,0.4-0.6,0.6-1c0.2-0.3,0.4-0.7,0.6-1l13.1-19.4c-2.4-3.6-4.8-7.1-7.2-10.7
			c-2.4-3.5-4.6-6.8-6.7-10l-0.2-0.2c-0.2-0.3-0.3-0.5-0.3-0.7s0.1-0.3,0.3-0.4c0.2,0,0.5-0.1,0.7-0.1h7.1c0.4,0,0.8,0.1,1.1,0.3
			c0.3,0.2,0.6,0.5,0.9,0.9l9.1,13.5l9.1-13.5c0.3-0.4,0.6-0.8,0.9-0.9c0.3-0.2,0.7-0.3,1.1-0.3h7.1c0.3,0,0.6,0.1,0.7,0.1
			c0.2,0.1,0.2,0.2,0.2,0.4c0,0.2-0.1,0.4-0.4,0.8c-2.1,3.1-4.4,6.5-6.8,10c-2.4,3.5-4.8,7.1-7.2,10.7l14.1,20.9
			c0.2,0.3,0.3,0.5,0.3,0.7s0.1,0.3,0.1,0.4c0,0.3-0.2,0.4-0.7,0.4h-7.5c-0.3,0-0.5-0.1-0.7-0.2s-0.4-0.2-0.6-0.4
			c-0.2-0.2-0.4-0.4-0.5-0.7c-0.2-0.3-0.4-0.5-0.6-0.9c-1.5-2.2-3-4.4-4.4-6.6s-2.9-4.4-4.4-6.6c-1.6,2.4-3.2,4.7-4.7,7.1
			c-1.6,2.3-3.1,4.7-4.7,7.1c-0.4,0.7-1,1.1-1.7,1.1h-7.6c-0.4,0-0.7-0.2-0.7-0.4c0-0.1,0-0.2,0.1-0.3
			C752,370.9,752,370.8,752.1,370.8z"/>
	</g>
	<g class="st1">
		<g>
			<path class="st5" d="M91.6,533l10.4-1.2c1.2,8.2,5,12.3,11.5,12.3c3.2,0,5.7-0.8,7.6-2.5c1.8-1.7,2.8-3.8,2.8-6.2
				c0-1.5-0.3-2.7-1-3.7c-0.6-1-1.6-1.9-2.9-2.5c-1.3-0.7-4.5-1.8-9.5-3.3c-4.5-1.4-7.8-2.9-9.9-4.5s-3.8-3.7-5-6.3
				s-1.9-5.4-1.9-8.4c0-3.5,0.8-6.6,2.4-9.4s3.8-4.9,6.6-6.3c2.8-1.4,6.3-2.1,10.4-2.1c6.2,0,11,1.7,14.5,5
				c3.5,3.4,5.3,8.2,5.5,14.4l-10.6,0.6c-0.5-3.4-1.5-5.9-3-7.2c-1.5-1.4-3.8-2.1-6.6-2.1c-2.9,0-5.1,0.6-6.6,1.8
				c-1.5,1.2-2.3,2.7-2.3,4.5c0,1.7,0.7,3.2,2.1,4.4c1.4,1.2,4.6,2.5,9.7,3.9c5.3,1.5,9.2,3.2,11.6,4.9s4.2,3.9,5.4,6.6
				c1.3,2.7,1.9,6,1.9,9.8c0,5.6-1.7,10.3-5.1,14.1c-3.4,3.8-8.8,5.7-16.1,5.7C100.2,555,93,547.7,91.6,533z"/>
			<path class="st5" d="M143.2,501.1v-11.4h10.1v11.4H143.2z M143.2,553.9v-46.5h10.1v46.5H143.2z"/>
			<path class="st5" d="M160.1,540.7l10.1-1.9c0.9,4.9,3.6,7.3,8.1,7.3c2.4,0,4.2-0.5,5.4-1.4s1.8-2.1,1.8-3.6c0-1-0.3-1.8-0.8-2.4
				c-0.6-0.6-1.7-1.1-3.3-1.5c-8.3-2.2-13.5-4.3-15.8-6.3c-2.8-2.5-4.2-5.9-4.2-10.2s1.4-7.8,4.1-10.4c2.7-2.6,6.7-3.9,12-3.9
				c5,0,8.8,1,11.4,2.9c2.6,1.9,4.4,5.1,5.5,9.4l-9.5,2.1c-0.8-3.7-3.2-5.6-7.2-5.6c-2.5,0-4.2,0.4-5.3,1.1s-1.6,1.6-1.6,2.8
				c0,1,0.5,1.9,1.4,2.5c1,0.7,4,1.8,9,3.2c5.6,1.6,9.5,3.5,11.5,5.8c2,2.2,3,5.2,3,9c0,4.5-1.5,8.2-4.6,11.1s-7.3,4.4-12.8,4.4
				c-4.9,0-9-1.2-12.1-3.7C163.2,548.9,161.1,545.4,160.1,540.7z"/>
			<path class="st5" d="M222,507.4v9.8h-6.9V536c0,4.1,0.1,6.4,0.3,7.1c0.4,1.2,1.2,1.8,2.5,1.8c0.9,0,2.3-0.4,4-1.2l0.9,9.5
				c-2.3,1.2-5,1.8-7.9,1.8c-2.6,0-4.6-0.6-6.2-1.8c-1.5-1.2-2.6-3-3.1-5.3c-0.4-1.7-0.6-5.1-0.6-10.3v-20.3h-4.6v-9.8h4.6v-9.2
				l10.1-7.2v16.4L222,507.4L222,507.4z"/>
			<path class="st5" d="M251.2,539.2l10,2.1c-1.3,4.7-3.4,8.1-6.3,10.4c-2.8,2.3-6.3,3.4-10.3,3.4c-5.6,0-10-1.9-13.1-5.7
				c-3.6-4.4-5.4-10.5-5.4-18.4c0-7.8,1.8-14,5.5-18.7c3.1-3.9,7.1-5.9,12-5.9c5.5,0,9.7,2,12.8,6.1c3.6,4.6,5.3,11.4,5.3,20.4v1.4
				h-25.3c0.1,3.7,0.9,6.5,2.5,8.6c1.6,2,3.5,3,5.8,3C247.9,545.8,250.1,543.6,251.2,539.2z M251.7,526.7c-0.1-3.6-0.9-6.4-2.3-8.2
				s-3.2-2.7-5.2-2.7c-2.1,0-3.9,1-5.4,2.9s-2.2,4.6-2.2,8.1L251.7,526.7L251.7,526.7z"/>
			<path class="st5" d="M269.1,507.4h9.3v6.3c1.7-2.5,3.5-4.3,5.5-5.6c2-1.2,4.1-1.9,6.4-1.9c2.5,0,4.6,0.6,6.4,1.8
				c1.8,1.2,3.3,3.1,4.4,5.6c1.7-2.5,3.5-4.3,5.5-5.6c1.9-1.2,4-1.8,6.2-1.8c2.6,0,4.8,0.6,6.7,1.9c1.9,1.2,3.3,3,4.3,5.3
				s1.5,5.9,1.5,10.6v29.8h-10.1v-26.6c0-4.6-0.4-7.7-1.2-9.3c-0.8-1.5-2.2-2.3-4.1-2.3c-2.2,0-4.1,1.1-5.4,3.2
				c-1.4,2.1-2.1,6.3-2.1,12.6v22.4h-10.1v-25.5c0-5.1-0.3-8.3-0.8-9.8c-0.7-1.9-2.2-2.9-4.4-2.9c-1.5,0-2.9,0.5-4.1,1.5
				c-1.3,1-2.2,2.4-2.7,4.4c-0.6,1.9-0.8,5.1-0.8,9.7v22.6h-10.1v-46.4H269.1L269.1,507.4z"/>
			<path class="st5" d="M342.8,521.6l-9.2-2c1.1-4.7,2.9-8.1,5.5-10.1c2.6-2.1,6.2-3.1,11-3.1c4.3,0,7.5,0.6,9.8,1.8
				c2.2,1.2,3.9,2.8,4.8,4.9c1,2.1,1.4,5.8,1.4,11.2l-0.1,14.4c0,4,0.2,7,0.5,9s0.9,4.1,1.8,6.3h-10l-1.3-5.1
				c-1.7,2-3.6,3.6-5.5,4.6c-2,1-4.1,1.6-6.3,1.6c-3.7,0-6.7-1.2-9.1-3.7s-3.5-5.8-3.5-10c0-2.6,0.5-4.9,1.4-6.9
				c1-2,2.3-3.5,4.1-4.7c1.8-1.2,4.6-2.2,8.4-3.1c4.7-1.1,7.9-2.1,9.8-3c0-2.6-0.2-4.3-0.5-5.1c-0.4-0.8-1-1.5-2-2s-2.4-0.8-4.1-0.8
				c-1.8,0-3.2,0.4-4.3,1.2C344.3,517.8,343.5,519.3,342.8,521.6z M356.3,531.6c-1.3,0.5-3.3,1.1-6,1.8c-3.1,0.8-5.2,1.7-6.1,2.7
				c-1,1-1.4,2.3-1.4,3.9c0,1.8,0.5,3.3,1.6,4.5s2.4,1.8,4,1.8c1.4,0,2.8-0.5,4.2-1.5c1.4-1,2.4-2.1,2.9-3.5
				c0.5-1.3,0.8-3.8,0.8-7.3V531.6z"/>
			<path class="st5" d="M431.6,553.9h-9.4v-6.8c-1.5,2.6-3.4,4.6-5.5,5.9s-4.3,2-6.5,2c-4.3,0-8-2.1-11.1-6.4
				c-3.2-4.3-4.7-10.3-4.7-18.2c0-8,1.5-14,4.6-18s6.9-6.1,11.4-6.1c2.1,0,4.1,0.5,6,1.6s3.5,2.7,5.1,4.9v-23.1h10.1V553.9z
				 M404.7,529.6c0,4.2,0.4,7.4,1.1,9.4c0.7,2.1,1.7,3.6,3.1,4.7c1.3,1,2.8,1.6,4.5,1.6c2.2,0,4.1-1.2,5.8-3.6
				c1.6-2.4,2.4-6,2.4-10.8c0-5.4-0.8-9.2-2.4-11.6s-3.6-3.5-6-3.5c-2.3,0-4.3,1.2-5.9,3.5C405.5,521.5,404.7,525,404.7,529.6z"/>
			<path class="st5" d="M463.7,539.2l10,2.1c-1.3,4.7-3.4,8.1-6.3,10.4c-2.8,2.3-6.3,3.4-10.3,3.4c-5.6,0-10-1.9-13.1-5.7
				c-3.6-4.4-5.4-10.5-5.4-18.4c0-7.8,1.8-14,5.5-18.7c3.1-3.9,7.1-5.9,12-5.9c5.5,0,9.7,2,12.8,6.1c3.6,4.6,5.3,11.4,5.3,20.4v1.4
				h-25.3c0.1,3.7,0.9,6.5,2.5,8.6c1.6,2,3.5,3,5.8,3C460.4,545.8,462.6,543.6,463.7,539.2z M464.2,526.7c-0.1-3.6-0.9-6.4-2.3-8.2
				c-1.5-1.8-3.2-2.7-5.2-2.7c-2.1,0-3.9,1-5.4,2.9s-2.2,4.6-2.2,8.1L464.2,526.7L464.2,526.7z"/>
			<path class="st5" d="M527.4,530.4v-10.9h22.9v25.6c-2.3,2.7-5.6,5-9.8,7s-8.5,2.9-12.7,2.9c-5.2,0-9.8-1.3-13.7-3.8
				c-4-2.6-7.1-6.4-9.4-11.5s-3.5-11.1-3.5-18c0-7.1,1.2-13.1,3.5-18.1s5.4-8.8,9.1-11.3c3.8-2.5,8.2-3.7,13.5-3.7
				c6.3,0,11.3,1.6,15.1,4.8c3.8,3.2,6.2,7.9,7.3,14.1l-10.5,2.4c-0.8-3.3-2.2-5.8-4.3-7.6c-2.1-1.8-4.6-2.6-7.5-2.6
				c-4.5,0-8.2,1.8-11,5.3s-4.2,8.9-4.2,16.1c0,7.7,1.5,13.6,4.6,17.6c2.6,3.5,6.1,5.2,10.6,5.2c2.1,0,4.2-0.5,6.5-1.5
				c2.2-1,4.2-2.3,6-4v-8.1L527.4,530.4L527.4,530.4L527.4,530.4z"/>
			<path class="st5" d="M582.3,539.2l10,2.1c-1.3,4.7-3.4,8.1-6.3,10.4c-2.8,2.3-6.3,3.4-10.3,3.4c-5.6,0-10-1.9-13.1-5.7
				c-3.6-4.4-5.4-10.5-5.4-18.4c0-7.8,1.8-14,5.5-18.7c3.1-3.9,7.1-5.9,12-5.9c5.5,0,9.7,2,12.8,6.1c3.6,4.6,5.3,11.4,5.3,20.4v1.4
				h-25.3c0.1,3.7,0.9,6.5,2.5,8.6c1.6,2,3.5,3,5.8,3C579,545.8,581.2,543.6,582.3,539.2z M582.8,526.7c-0.1-3.6-0.9-6.4-2.3-8.2
				c-1.5-1.8-3.2-2.7-5.2-2.7c-2.1,0-3.9,1-5.4,2.9s-2.2,4.6-2.2,8.1L582.8,526.7L582.8,526.7z"/>
			<path class="st5" d="M597.4,540.7l10.1-1.9c0.9,4.9,3.6,7.3,8.1,7.3c2.4,0,4.2-0.5,5.4-1.4s1.8-2.1,1.8-3.6c0-1-0.3-1.8-0.8-2.4
				c-0.6-0.6-1.7-1.1-3.3-1.5c-8.3-2.2-13.5-4.3-15.8-6.3c-2.8-2.5-4.2-5.9-4.2-10.2s1.4-7.8,4.1-10.4c2.7-2.6,6.7-3.9,12-3.9
				c5,0,8.8,1,11.4,2.9c2.6,1.9,4.4,5.1,5.5,9.4l-9.5,2.1c-0.8-3.7-3.2-5.6-7.2-5.6c-2.5,0-4.2,0.4-5.3,1.1s-1.6,1.6-1.6,2.8
				c0,1,0.5,1.9,1.4,2.5c1,0.7,4,1.8,9,3.2c5.6,1.6,9.5,3.5,11.5,5.8c2,2.2,3,5.2,3,9c0,4.5-1.5,8.2-4.6,11.1s-7.3,4.4-12.8,4.4
				c-4.9,0-9-1.2-12.1-3.7C600.5,548.9,598.4,545.4,597.4,540.7z"/>
			<path class="st5" d="M659.3,507.4v9.8h-6.9V536c0,4.1,0.1,6.4,0.3,7.1c0.4,1.2,1.2,1.8,2.5,1.8c0.9,0,2.3-0.4,4-1.2l0.9,9.5
				c-2.3,1.2-5,1.8-7.9,1.8c-2.6,0-4.6-0.6-6.2-1.8c-1.5-1.2-2.6-3-3.1-5.3c-0.4-1.7-0.6-5.1-0.6-10.3v-20.3h-4.6v-9.8h4.6v-9.2
				l10.1-7.2v16.4L659.3,507.4L659.3,507.4z"/>
			<path class="st5" d="M666.4,501.1v-11.4h10.1v11.4H666.4z M666.4,553.9v-46.5h10.1v46.5H666.4z"/>
			<path class="st5" d="M684.4,530c0-4.6,0.9-8.7,2.7-12.5c1.8-3.7,4.2-6.5,7.1-8.4c2.9-1.9,6.2-2.8,9.8-2.8
				c6.1,0,10.9,2.4,14.4,7.2s5.3,10.4,5.3,16.9c0,4.8-0.9,9.1-2.7,13s-4.2,6.8-7.2,8.7s-6.2,2.9-9.7,2.9c-5.7,0-10.4-2.2-14.1-6.5
				C686.3,544.2,684.4,538,684.4,530z M694.8,530.7c0,4.7,0.9,8.3,2.8,10.7s4.1,3.6,6.7,3.6c2.5,0,4.7-1.2,6.5-3.6s2.7-6,2.7-10.8
				c0-4.6-0.9-8.2-2.8-10.6c-1.8-2.4-4.1-3.6-6.6-3.6s-4.7,1.2-6.6,3.6C695.7,522.4,694.8,526,694.8,530.7z M698.9,501.7l5-13.1
				h11.4l-9.9,13.1H698.9z"/>
			<path class="st5" d="M766.4,553.9h-10.1v-23.8c0-4.8-0.2-7.9-0.6-9.5c-0.4-1.6-1.1-2.8-2.1-3.6s-2.2-1.3-3.5-1.3
				c-1.7,0-3.2,0.5-4.6,1.6c-1.4,1.1-2.3,2.6-2.9,4.5c-0.6,1.9-0.8,5.6-0.8,10.9v21.1h-10.1v-46.5h9.4v6.8c1.7-2.6,3.5-4.6,5.6-5.9
				s4.4-2,6.9-2c2.9,0,5.4,0.8,7.5,2.3c2,1.5,3.4,3.5,4.2,5.9s1.2,5.9,1.2,10.5v29H766.4z"/>
			<path class="st5" d="M796.8,553.9v-64.2h10.6v64.2H796.8z"/>
			<path class="st5" d="M852.2,553.9h-10.1v-23.8c0-4.8-0.2-7.9-0.6-9.5c-0.4-1.6-1.1-2.8-2.1-3.6s-2.2-1.3-3.5-1.3
				c-1.7,0-3.2,0.5-4.6,1.6c-1.4,1.1-2.3,2.6-2.9,4.5c-0.6,1.9-0.8,5.6-0.8,10.9v21.1h-10.1v-46.5h9.4v6.8c1.7-2.6,3.5-4.6,5.6-5.9
				s4.4-2,6.9-2c2.9,0,5.4,0.8,7.5,2.3c2,1.5,3.4,3.5,4.2,5.9s1.2,5.9,1.2,10.5v29H852.2z"/>
			<path class="st5" d="M879.9,507.4v9.8H873V536c0,4.1,0.1,6.4,0.3,7.1c0.4,1.2,1.2,1.8,2.5,1.8c0.9,0,2.3-0.4,4-1.2l0.9,9.5
				c-2.3,1.2-5,1.8-7.9,1.8c-2.6,0-4.6-0.6-6.2-1.8c-1.5-1.2-2.6-3-3.1-5.3c-0.4-1.7-0.6-5.1-0.6-10.3v-20.3h-4.6v-9.8h4.6v-9.2
				L873,491v16.4H879.9z"/>
			<path class="st5" d="M909.1,539.2l10,2.1c-1.3,4.7-3.4,8.1-6.3,10.4c-2.8,2.3-6.3,3.4-10.3,3.4c-5.6,0-10-1.9-13.1-5.7
				c-3.6-4.4-5.4-10.5-5.4-18.4c0-7.8,1.8-14,5.5-18.7c3.1-3.9,7.1-5.9,12-5.9c5.5,0,9.7,2,12.8,6.1c3.6,4.6,5.3,11.4,5.3,20.4v1.4
				h-25.3c0.1,3.7,0.9,6.5,2.5,8.6c1.6,2,3.5,3,5.8,3C905.8,545.8,908,543.6,909.1,539.2z M909.6,526.7c-0.1-3.6-0.9-6.4-2.3-8.2
				c-1.5-1.8-3.2-2.7-5.2-2.7c-2.1,0-3.9,1-5.4,2.9s-2.2,4.6-2.2,8.1L909.6,526.7L909.6,526.7z"/>
			<path class="st5" d="M937.5,553.9h-10.1v-46.5h9.4v6.6c1.6-3.1,3-5.2,4.3-6.2s2.7-1.5,4.4-1.5c2.3,0,4.5,0.8,6.6,2.3l-3.2,10.7
				c-1.7-1.3-3.2-2-4.7-2c-1.4,0-2.6,0.5-3.7,1.6c-1.1,1-1.8,2.9-2.3,5.6s-0.7,7.7-0.7,15V553.9z"/>
			<path class="st5" d="M991.1,553.9H981v-23.8c0-4.8-0.2-7.9-0.6-9.5c-0.4-1.6-1.1-2.8-2.1-3.6s-2.2-1.3-3.5-1.3
				c-1.7,0-3.2,0.5-4.6,1.6c-1.4,1.1-2.3,2.6-2.9,4.5c-0.6,1.9-0.8,5.6-0.8,10.9v21.1h-10.1v-46.5h9.4v6.8c1.7-2.6,3.5-4.6,5.6-5.9
				s4.4-2,6.9-2c2.9,0,5.4,0.8,7.5,2.3c2,1.5,3.4,3.5,4.2,5.9s1.2,5.9,1.2,10.5v29H991.1z"/>
			<path class="st5" d="M1008.9,521.6l-9.1-2c1.1-4.7,2.9-8.1,5.5-10.1c2.6-2.1,6.2-3.1,11-3.1c4.3,0,7.5,0.6,9.8,1.8
				c2.2,1.2,3.9,2.8,4.8,4.9c1,2.1,1.4,5.8,1.4,11.2l-0.1,14.4c0,4,0.2,7,0.5,9s0.9,4.1,1.8,6.3h-10l-1.3-5.1
				c-1.7,2-3.6,3.6-5.5,4.6c-2,1-4.1,1.6-6.3,1.6c-3.7,0-6.7-1.2-9.1-3.7c-2.4-2.5-3.5-5.8-3.5-10c0-2.6,0.5-4.9,1.4-6.9
				c1-2,2.3-3.5,4.1-4.7s4.6-2.2,8.4-3.1c4.7-1.1,7.9-2.1,9.8-3c0-2.6-0.2-4.3-0.5-5.1c-0.4-0.8-1-1.5-2-2s-2.4-0.8-4.1-0.8
				c-1.8,0-3.2,0.4-4.3,1.2C1010.3,517.8,1009.5,519.3,1008.9,521.6z M1022.3,531.6c-1.3,0.5-3.3,1.1-6,1.8
				c-3.1,0.8-5.2,1.7-6.1,2.7c-1,1-1.4,2.3-1.4,3.9c0,1.8,0.5,3.3,1.6,4.5s2.4,1.8,4,1.8c1.4,0,2.8-0.5,4.2-1.5s2.4-2.1,2.9-3.5
				c0.5-1.3,0.8-3.8,0.8-7.3V531.6z"/>
		</g>
		<polygon class="st5" points="1034.4,156.6 1034.4,95.1 816,95.1 816,156.6 888.6,156.6 888.6,378.2 816,378.2 816,439.7 
			1034.4,439.7 1034.4,378.2 961.9,378.2 961.9,156.6 		"/>
		<g>
			<path class="st5" d="M91.8,378.2h142.8c26.4,0,41.3-2.1,50.1-7.8c11.9-6.7,18.1-18.1,18.1-32c0-15.5-7.7-29.4-21.2-36.2
				c-7.8-4.6-21.2-6.7-38.2-6.7h-32.1c-39.8,0-66.6-6.7-84.2-21.2c-21.7-18.1-34.6-46.5-34.6-77.5c0-42.9,22.7-80.6,56.8-93.5
				c16.5-6.2,34.6-8.3,77-8.3h128.6v61.5H242.8c-32,0-43.9,1-52.2,5.2c-10.8,6.2-17,17.6-17,33.1c0,13.4,5.7,24.8,15.5,31.5
				c9.3,5.7,20.7,7.7,47.5,7.7h23.8c49.6,0,75.9,7.2,96.1,26.4c17,16,27.9,46.5,27.9,78c0,35.7-16,68.2-41.3,85.8
				c-17.6,11.9-39.3,15.5-92.5,15.5H91.8V378.2z"/>
		</g>
	</g>
	<g class="st1">
		<polygon class="st5" points="678.9,100.3 600.1,145.6 708.7,207.9 787.5,162.7 		"/>
		<polygon class="st5" points="678.9,100.3 600.1,55 412.8,162.7 412.8,162.7 491.6,207.9 		"/>
		<polygon class="st5" points="491.6,207.9 412.8,162.7 412.8,162.7 412.8,162.7 412.8,378 412.8,378 412.8,378 491.6,332.7 
			491.6,332.7 		"/>
		<polygon class="st5" points="678.9,440.4 491.6,332.7 491.6,332.7 412.8,378 412.8,378 412.8,378 412.8,378 600.1,485.7 		"/>
		<polygon class="st5" points="773.9,385.7 694.6,340.8 600.1,395.1 678.9,440.4 773.9,385.8 773.9,385.8 773.9,385.8 		"/>
		<g>
			<polygon class="st5" points="773.9,385.7 773.9,314.5 659.1,248.5 659.1,320.6 659.1,320.6 			"/>
			<path class="st5" d="M773.9,385.8L773.9,385.8L773.9,385.8z"/>
		</g>
	</g>
</g>
<g>
	<g>
		<g>
			<path class="st6" d="M91.6,533l10.4-1.2c1.2,8.2,5,12.3,11.5,12.3c3.2,0,5.7-0.8,7.6-2.5c1.8-1.7,2.8-3.8,2.8-6.2
				c0-1.5-0.3-2.7-1-3.7c-0.6-1-1.6-1.9-2.9-2.5c-1.3-0.7-4.5-1.8-9.5-3.3c-4.5-1.4-7.8-2.9-9.9-4.5s-3.8-3.7-5-6.3
				s-1.9-5.4-1.9-8.4c0-3.5,0.8-6.6,2.4-9.4s3.8-4.9,6.6-6.3c2.8-1.4,6.3-2.1,10.4-2.1c6.2,0,11,1.7,14.5,5
				c3.5,3.4,5.3,8.2,5.5,14.4l-10.6,0.6c-0.5-3.4-1.5-5.9-3-7.2c-1.5-1.4-3.8-2.1-6.6-2.1c-2.9,0-5.1,0.6-6.6,1.8
				c-1.5,1.2-2.3,2.7-2.3,4.5c0,1.7,0.7,3.2,2.1,4.4c1.4,1.2,4.6,2.5,9.7,3.9c5.3,1.5,9.2,3.2,11.6,4.9s4.2,3.9,5.4,6.6
				c1.3,2.7,1.9,6,1.9,9.8c0,5.6-1.7,10.3-5.1,14.1c-3.4,3.8-8.8,5.7-16.1,5.7C100.2,555,93,547.7,91.6,533z"/>
			<path class="st6" d="M143.2,501.1v-11.4h10.1v11.4H143.2z M143.2,553.9v-46.5h10.1v46.5H143.2z"/>
			<path class="st6" d="M160.1,540.7l10.1-1.9c0.9,4.9,3.6,7.3,8.1,7.3c2.4,0,4.2-0.5,5.4-1.4s1.8-2.1,1.8-3.6c0-1-0.3-1.8-0.8-2.4
				c-0.6-0.6-1.7-1.1-3.3-1.5c-8.3-2.2-13.5-4.3-15.8-6.3c-2.8-2.5-4.2-5.9-4.2-10.2s1.4-7.8,4.1-10.4c2.7-2.6,6.7-3.9,12-3.9
				c5,0,8.8,1,11.4,2.9c2.6,1.9,4.4,5.1,5.5,9.4l-9.5,2.1c-0.8-3.7-3.2-5.6-7.2-5.6c-2.5,0-4.2,0.4-5.3,1.1s-1.6,1.6-1.6,2.8
				c0,1,0.5,1.9,1.4,2.5c1,0.7,4,1.8,9,3.2c5.6,1.6,9.5,3.5,11.5,5.8c2,2.2,3,5.2,3,9c0,4.5-1.5,8.2-4.6,11.1s-7.3,4.4-12.8,4.4
				c-4.9,0-9-1.2-12.1-3.7C163.2,548.9,161.1,545.4,160.1,540.7z"/>
			<path class="st6" d="M222,507.4v9.8h-6.9V536c0,4.1,0.1,6.4,0.3,7.1c0.4,1.2,1.2,1.8,2.5,1.8c0.9,0,2.3-0.4,4-1.2l0.9,9.5
				c-2.3,1.2-5,1.8-7.9,1.8c-2.6,0-4.6-0.6-6.2-1.8c-1.5-1.2-2.6-3-3.1-5.3c-0.4-1.7-0.6-5.1-0.6-10.3v-20.3h-4.6v-9.8h4.6v-9.2
				l10.1-7.2v16.4L222,507.4L222,507.4z"/>
			<path class="st6" d="M251.2,539.2l10,2.1c-1.3,4.7-3.4,8.1-6.3,10.4c-2.8,2.3-6.3,3.4-10.3,3.4c-5.6,0-10-1.9-13.1-5.7
				c-3.6-4.4-5.4-10.5-5.4-18.4c0-7.8,1.8-14,5.5-18.7c3.1-3.9,7.1-5.9,12-5.9c5.5,0,9.7,2,12.8,6.1c3.6,4.6,5.3,11.4,5.3,20.4v1.4
				h-25.3c0.1,3.7,0.9,6.5,2.5,8.6c1.6,2,3.5,3,5.8,3C247.9,545.8,250.1,543.6,251.2,539.2z M251.7,526.7c-0.1-3.6-0.9-6.4-2.3-8.2
				s-3.2-2.7-5.2-2.7c-2.1,0-3.9,1-5.4,2.9s-2.2,4.6-2.2,8.1L251.7,526.7L251.7,526.7z"/>
			<path class="st6" d="M269.1,507.4h9.3v6.3c1.7-2.5,3.5-4.3,5.5-5.6c2-1.2,4.1-1.9,6.4-1.9c2.5,0,4.6,0.6,6.4,1.8
				c1.8,1.2,3.3,3.1,4.4,5.6c1.7-2.5,3.5-4.3,5.5-5.6c1.9-1.2,4-1.8,6.2-1.8c2.6,0,4.8,0.6,6.7,1.9c1.9,1.2,3.3,3,4.3,5.3
				s1.5,5.9,1.5,10.6v29.8h-10.1v-26.6c0-4.6-0.4-7.7-1.2-9.3c-0.8-1.5-2.2-2.3-4.1-2.3c-2.2,0-4.1,1.1-5.4,3.2
				c-1.4,2.1-2.1,6.3-2.1,12.6v22.4h-10.1v-25.5c0-5.1-0.3-8.3-0.8-9.8c-0.7-1.9-2.2-2.9-4.4-2.9c-1.5,0-2.9,0.5-4.1,1.5
				c-1.3,1-2.2,2.4-2.7,4.4c-0.6,1.9-0.8,5.1-0.8,9.7v22.6h-10.1v-46.4H269.1L269.1,507.4z"/>
			<path class="st6" d="M342.8,521.6l-9.2-2c1.1-4.7,2.9-8.1,5.5-10.1c2.6-2.1,6.2-3.1,11-3.1c4.3,0,7.5,0.6,9.8,1.8
				c2.2,1.2,3.9,2.8,4.8,4.9c1,2.1,1.4,5.8,1.4,11.2l-0.1,14.4c0,4,0.2,7,0.5,9s0.9,4.1,1.8,6.3h-10l-1.3-5.1
				c-1.7,2-3.6,3.6-5.5,4.6c-2,1-4.1,1.6-6.3,1.6c-3.7,0-6.7-1.2-9.1-3.7s-3.5-5.8-3.5-10c0-2.6,0.5-4.9,1.4-6.9
				c1-2,2.3-3.5,4.1-4.7c1.8-1.2,4.6-2.2,8.4-3.1c4.7-1.1,7.9-2.1,9.8-3c0-2.6-0.2-4.3-0.5-5.1c-0.4-0.8-1-1.5-2-2s-2.4-0.8-4.1-0.8
				c-1.8,0-3.2,0.4-4.3,1.2C344.3,517.8,343.5,519.3,342.8,521.6z M356.3,531.6c-1.3,0.5-3.3,1.1-6,1.8c-3.1,0.8-5.2,1.7-6.1,2.7
				c-1,1-1.4,2.3-1.4,3.9c0,1.8,0.5,3.3,1.6,4.5s2.4,1.8,4,1.8c1.4,0,2.8-0.5,4.2-1.5c1.4-1,2.4-2.1,2.9-3.5
				c0.5-1.3,0.8-3.8,0.8-7.3V531.6z"/>
			<path class="st6" d="M431.6,553.9h-9.4v-6.8c-1.5,2.6-3.4,4.6-5.5,5.9s-4.3,2-6.5,2c-4.3,0-8-2.1-11.1-6.4
				c-3.2-4.3-4.7-10.3-4.7-18.2c0-8,1.5-14,4.6-18s6.9-6.1,11.4-6.1c2.1,0,4.1,0.5,6,1.6s3.5,2.7,5.1,4.9v-23.1h10.1V553.9z
				 M404.7,529.6c0,4.2,0.4,7.4,1.1,9.4c0.7,2.1,1.7,3.6,3.1,4.7c1.3,1,2.8,1.6,4.5,1.6c2.2,0,4.1-1.2,5.8-3.6
				c1.6-2.4,2.4-6,2.4-10.8c0-5.4-0.8-9.2-2.4-11.6s-3.6-3.5-6-3.5c-2.3,0-4.3,1.2-5.9,3.5C405.5,521.5,404.7,525,404.7,529.6z"/>
			<path class="st6" d="M463.7,539.2l10,2.1c-1.3,4.7-3.4,8.1-6.3,10.4c-2.8,2.3-6.3,3.4-10.3,3.4c-5.6,0-10-1.9-13.1-5.7
				c-3.6-4.4-5.4-10.5-5.4-18.4c0-7.8,1.8-14,5.5-18.7c3.1-3.9,7.1-5.9,12-5.9c5.5,0,9.7,2,12.8,6.1c3.6,4.6,5.3,11.4,5.3,20.4v1.4
				h-25.3c0.1,3.7,0.9,6.5,2.5,8.6c1.6,2,3.5,3,5.8,3C460.4,545.8,462.6,543.6,463.7,539.2z M464.2,526.7c-0.1-3.6-0.9-6.4-2.3-8.2
				c-1.5-1.8-3.2-2.7-5.2-2.7c-2.1,0-3.9,1-5.4,2.9s-2.2,4.6-2.2,8.1L464.2,526.7L464.2,526.7z"/>
			<path class="st6" d="M527.4,530.4v-10.9h22.9v25.6c-2.3,2.7-5.6,5-9.8,7s-8.5,2.9-12.7,2.9c-5.2,0-9.8-1.3-13.7-3.8
				c-4-2.6-7.1-6.4-9.4-11.5s-3.5-11.1-3.5-18c0-7.1,1.2-13.1,3.5-18.1s5.4-8.8,9.1-11.3c3.8-2.5,8.2-3.7,13.5-3.7
				c6.3,0,11.3,1.6,15.1,4.8c3.8,3.2,6.2,7.9,7.3,14.1l-10.5,2.4c-0.8-3.3-2.2-5.8-4.3-7.6c-2.1-1.8-4.6-2.6-7.5-2.6
				c-4.5,0-8.2,1.8-11,5.3s-4.2,8.9-4.2,16.1c0,7.7,1.5,13.6,4.6,17.6c2.6,3.5,6.1,5.2,10.6,5.2c2.1,0,4.2-0.5,6.5-1.5
				c2.2-1,4.2-2.3,6-4v-8.1L527.4,530.4L527.4,530.4L527.4,530.4z"/>
			<path class="st6" d="M582.3,539.2l10,2.1c-1.3,4.7-3.4,8.1-6.3,10.4c-2.8,2.3-6.3,3.4-10.3,3.4c-5.6,0-10-1.9-13.1-5.7
				c-3.6-4.4-5.4-10.5-5.4-18.4c0-7.8,1.8-14,5.5-18.7c3.1-3.9,7.1-5.9,12-5.9c5.5,0,9.7,2,12.8,6.1c3.6,4.6,5.3,11.4,5.3,20.4v1.4
				h-25.3c0.1,3.7,0.9,6.5,2.5,8.6c1.6,2,3.5,3,5.8,3C579,545.8,581.2,543.6,582.3,539.2z M582.8,526.7c-0.1-3.6-0.9-6.4-2.3-8.2
				c-1.5-1.8-3.2-2.7-5.2-2.7c-2.1,0-3.9,1-5.4,2.9s-2.2,4.6-2.2,8.1L582.8,526.7L582.8,526.7z"/>
			<path class="st6" d="M597.4,540.7l10.1-1.9c0.9,4.9,3.6,7.3,8.1,7.3c2.4,0,4.2-0.5,5.4-1.4s1.8-2.1,1.8-3.6c0-1-0.3-1.8-0.8-2.4
				c-0.6-0.6-1.7-1.1-3.3-1.5c-8.3-2.2-13.5-4.3-15.8-6.3c-2.8-2.5-4.2-5.9-4.2-10.2s1.4-7.8,4.1-10.4c2.7-2.6,6.7-3.9,12-3.9
				c5,0,8.8,1,11.4,2.9c2.6,1.9,4.4,5.1,5.5,9.4l-9.5,2.1c-0.8-3.7-3.2-5.6-7.2-5.6c-2.5,0-4.2,0.4-5.3,1.1s-1.6,1.6-1.6,2.8
				c0,1,0.5,1.9,1.4,2.5c1,0.7,4,1.8,9,3.2c5.6,1.6,9.5,3.5,11.5,5.8c2,2.2,3,5.2,3,9c0,4.5-1.5,8.2-4.6,11.1s-7.3,4.4-12.8,4.4
				c-4.9,0-9-1.2-12.1-3.7C600.5,548.9,598.4,545.4,597.4,540.7z"/>
			<path class="st6" d="M659.3,507.4v9.8h-6.9V536c0,4.1,0.1,6.4,0.3,7.1c0.4,1.2,1.2,1.8,2.5,1.8c0.9,0,2.3-0.4,4-1.2l0.9,9.5
				c-2.3,1.2-5,1.8-7.9,1.8c-2.6,0-4.6-0.6-6.2-1.8c-1.5-1.2-2.6-3-3.1-5.3c-0.4-1.7-0.6-5.1-0.6-10.3v-20.3h-4.6v-9.8h4.6v-9.2
				l10.1-7.2v16.4L659.3,507.4L659.3,507.4z"/>
			<path class="st6" d="M666.4,501.1v-11.4h10.1v11.4H666.4z M666.4,553.9v-46.5h10.1v46.5H666.4z"/>
			<path class="st6" d="M684.4,530c0-4.6,0.9-8.7,2.7-12.5c1.8-3.7,4.2-6.5,7.1-8.4c2.9-1.9,6.2-2.8,9.8-2.8
				c6.1,0,10.9,2.4,14.4,7.2s5.3,10.4,5.3,16.9c0,4.8-0.9,9.1-2.7,13s-4.2,6.8-7.2,8.7s-6.2,2.9-9.7,2.9c-5.7,0-10.4-2.2-14.1-6.5
				C686.3,544.2,684.4,538,684.4,530z M694.8,530.7c0,4.7,0.9,8.3,2.8,10.7s4.1,3.6,6.7,3.6c2.5,0,4.7-1.2,6.5-3.6s2.7-6,2.7-10.8
				c0-4.6-0.9-8.2-2.8-10.6c-1.8-2.4-4.1-3.6-6.6-3.6s-4.7,1.2-6.6,3.6C695.7,522.4,694.8,526,694.8,530.7z M698.9,501.7l5-13.1
				h11.4l-9.9,13.1H698.9z"/>
			<path class="st6" d="M766.4,553.9h-10.1v-23.8c0-4.8-0.2-7.9-0.6-9.5c-0.4-1.6-1.1-2.8-2.1-3.6s-2.2-1.3-3.5-1.3
				c-1.7,0-3.2,0.5-4.6,1.6c-1.4,1.1-2.3,2.6-2.9,4.5c-0.6,1.9-0.8,5.6-0.8,10.9v21.1h-10.1v-46.5h9.4v6.8c1.7-2.6,3.5-4.6,5.6-5.9
				s4.4-2,6.9-2c2.9,0,5.4,0.8,7.5,2.3c2,1.5,3.4,3.5,4.2,5.9s1.2,5.9,1.2,10.5v29H766.4z"/>
			<path class="st6" d="M796.8,553.9v-64.2h10.6v64.2H796.8z"/>
			<path class="st6" d="M852.2,553.9h-10.1v-23.8c0-4.8-0.2-7.9-0.6-9.5c-0.4-1.6-1.1-2.8-2.1-3.6s-2.2-1.3-3.5-1.3
				c-1.7,0-3.2,0.5-4.6,1.6c-1.4,1.1-2.3,2.6-2.9,4.5c-0.6,1.9-0.8,5.6-0.8,10.9v21.1h-10.1v-46.5h9.4v6.8c1.7-2.6,3.5-4.6,5.6-5.9
				s4.4-2,6.9-2c2.9,0,5.4,0.8,7.5,2.3c2,1.5,3.4,3.5,4.2,5.9s1.2,5.9,1.2,10.5v29H852.2z"/>
			<path class="st6" d="M879.9,507.4v9.8H873V536c0,4.1,0.1,6.4,0.3,7.1c0.4,1.2,1.2,1.8,2.5,1.8c0.9,0,2.3-0.4,4-1.2l0.9,9.5
				c-2.3,1.2-5,1.8-7.9,1.8c-2.6,0-4.6-0.6-6.2-1.8c-1.5-1.2-2.6-3-3.1-5.3c-0.4-1.7-0.6-5.1-0.6-10.3v-20.3h-4.6v-9.8h4.6v-9.2
				L873,491v16.4H879.9z"/>
			<path class="st6" d="M909.1,539.2l10,2.1c-1.3,4.7-3.4,8.1-6.3,10.4c-2.8,2.3-6.3,3.4-10.3,3.4c-5.6,0-10-1.9-13.1-5.7
				c-3.6-4.4-5.4-10.5-5.4-18.4c0-7.8,1.8-14,5.5-18.7c3.1-3.9,7.1-5.9,12-5.9c5.5,0,9.7,2,12.8,6.1c3.6,4.6,5.3,11.4,5.3,20.4v1.4
				h-25.3c0.1,3.7,0.9,6.5,2.5,8.6c1.6,2,3.5,3,5.8,3C905.8,545.8,908,543.6,909.1,539.2z M909.6,526.7c-0.1-3.6-0.9-6.4-2.3-8.2
				c-1.5-1.8-3.2-2.7-5.2-2.7c-2.1,0-3.9,1-5.4,2.9s-2.2,4.6-2.2,8.1L909.6,526.7L909.6,526.7z"/>
			<path class="st6" d="M937.5,553.9h-10.1v-46.5h9.4v6.6c1.6-3.1,3-5.2,4.3-6.2s2.7-1.5,4.4-1.5c2.3,0,4.5,0.8,6.6,2.3l-3.2,10.7
				c-1.7-1.3-3.2-2-4.7-2c-1.4,0-2.6,0.5-3.7,1.6c-1.1,1-1.8,2.9-2.3,5.6s-0.7,7.7-0.7,15V553.9z"/>
			<path class="st6" d="M991.1,553.9H981v-23.8c0-4.8-0.2-7.9-0.6-9.5c-0.4-1.6-1.1-2.8-2.1-3.6s-2.2-1.3-3.5-1.3
				c-1.7,0-3.2,0.5-4.6,1.6c-1.4,1.1-2.3,2.6-2.9,4.5c-0.6,1.9-0.8,5.6-0.8,10.9v21.1h-10.1v-46.5h9.4v6.8c1.7-2.6,3.5-4.6,5.6-5.9
				s4.4-2,6.9-2c2.9,0,5.4,0.8,7.5,2.3c2,1.5,3.4,3.5,4.2,5.9s1.2,5.9,1.2,10.5v29H991.1z"/>
			<path class="st6" d="M1008.9,521.6l-9.1-2c1.1-4.7,2.9-8.1,5.5-10.1c2.6-2.1,6.2-3.1,11-3.1c4.3,0,7.5,0.6,9.8,1.8
				c2.2,1.2,3.9,2.8,4.8,4.9c1,2.1,1.4,5.8,1.4,11.2l-0.1,14.4c0,4,0.2,7,0.5,9s0.9,4.1,1.8,6.3h-10l-1.3-5.1
				c-1.7,2-3.6,3.6-5.5,4.6c-2,1-4.1,1.6-6.3,1.6c-3.7,0-6.7-1.2-9.1-3.7c-2.4-2.5-3.5-5.8-3.5-10c0-2.6,0.5-4.9,1.4-6.9
				c1-2,2.3-3.5,4.1-4.7s4.6-2.2,8.4-3.1c4.7-1.1,7.9-2.1,9.8-3c0-2.6-0.2-4.3-0.5-5.1c-0.4-0.8-1-1.5-2-2s-2.4-0.8-4.1-0.8
				c-1.8,0-3.2,0.4-4.3,1.2C1010.3,517.8,1009.5,519.3,1008.9,521.6z M1022.3,531.6c-1.3,0.5-3.3,1.1-6,1.8
				c-3.1,0.8-5.2,1.7-6.1,2.7c-1,1-1.4,2.3-1.4,3.9c0,1.8,0.5,3.3,1.6,4.5s2.4,1.8,4,1.8c1.4,0,2.8-0.5,4.2-1.5s2.4-2.1,2.9-3.5
				c0.5-1.3,0.8-3.8,0.8-7.3V531.6z"/>
		</g>
		<polygon class="st7" points="1034.4,156.6 1034.4,95.1 816,95.1 816,156.6 888.6,156.6 888.6,378.2 816,378.2 816,439.7 
			1034.4,439.7 1034.4,378.2 961.9,378.2 961.9,156.6 		"/>
		<g>
			<path class="st7" d="M91.8,378.2h142.8c26.4,0,41.3-2.1,50.1-7.8c11.9-6.7,18.1-18.1,18.1-32c0-15.5-7.7-29.4-21.2-36.2
				c-7.8-4.6-21.2-6.7-38.2-6.7h-32.1c-39.8,0-66.6-6.7-84.2-21.2c-21.7-18.1-34.6-46.5-34.6-77.5c0-42.9,22.7-80.6,56.8-93.5
				c16.5-6.2,34.6-8.3,77-8.3h128.6v61.5H242.8c-32,0-43.9,1-52.2,5.2c-10.8,6.2-17,17.6-17,33.1c0,13.4,5.7,24.8,15.5,31.5
				c9.3,5.7,20.7,7.7,47.5,7.7h23.8c49.6,0,75.9,7.2,96.1,26.4c17,16,27.9,46.5,27.9,78c0,35.7-16,68.2-41.3,85.8
				c-17.6,11.9-39.3,15.5-92.5,15.5H91.8V378.2z"/>
		</g>
	</g>
	<g>
		
			<linearGradient id="SVGID_1_" gradientUnits="userSpaceOnUse" x1="664.688" y1="1937.6216" x2="744.514" y2="2048.752" gradientTransform="matrix(1 0 0 1 0 -1824)">
			<stop  offset="0" style="stop-color:#A61214"/>
			<stop  offset="6.219926e-02" style="stop-color:#BE1619"/>
			<stop  offset="0.1439" style="stop-color:#D6191E"/>
			<stop  offset="0.2371" style="stop-color:#E81C21"/>
			<stop  offset="0.347" style="stop-color:#F51E24"/>
			<stop  offset="0.4895" style="stop-color:#FD2026"/>
			<stop  offset="0.7834" style="stop-color:#FF2026"/>
			<stop  offset="0.9302" style="stop-color:#FF2026"/>
		</linearGradient>
		<polygon class="st8" points="678.9,100.3 600.1,145.6 708.7,207.9 787.5,162.7 		"/>
		
			<linearGradient id="SVGID_2_" gradientUnits="userSpaceOnUse" x1="482.5595" y1="399.7817" x2="563.5595" y2="503.086" gradientTransform="matrix(1 0 0 -1 0 612)">
			<stop  offset="0" style="stop-color:#A61214"/>
			<stop  offset="1.172627e-02" style="stop-color:#A81214"/>
			<stop  offset="0.2406" style="stop-color:#CE181C"/>
			<stop  offset="0.4528" style="stop-color:#E91C21"/>
			<stop  offset="0.6403" style="stop-color:#F91F25"/>
			<stop  offset="0.7834" style="stop-color:#FF2026"/>
			<stop  offset="0.9302" style="stop-color:#FF2026"/>
		</linearGradient>
		<polygon class="st9" points="678.9,100.3 600.1,55 412.8,162.7 412.8,162.7 491.6,207.9 		"/>
		
			<linearGradient id="SVGID_3_" gradientUnits="userSpaceOnUse" x1="471.7748" y1="262.8787" x2="435.7748" y2="366.1831" gradientTransform="matrix(1 0 0 -1 0 612)">
			<stop  offset="0" style="stop-color:#A61214"/>
			<stop  offset="0.475" style="stop-color:#FF2026"/>
			<stop  offset="0.9302" style="stop-color:#FF2026"/>
		</linearGradient>
		<polygon class="st10" points="491.6,207.9 412.8,162.7 412.8,162.7 412.8,162.7 412.8,378 412.8,378 412.8,378 491.6,332.7 
			491.6,332.7 		"/>
		
			<linearGradient id="SVGID_4_" gradientUnits="userSpaceOnUse" x1="653.6464" y1="223.6908" x2="451.7333" y2="184.5603" gradientTransform="matrix(1 0 0 -1 0 612)">
			<stop  offset="0" style="stop-color:#A61214"/>
			<stop  offset="0.7834" style="stop-color:#FF2026"/>
			<stop  offset="0.9302" style="stop-color:#FF2026"/>
		</linearGradient>
		<polygon class="st11" points="678.9,440.4 491.6,332.7 491.6,332.7 412.8,378 412.8,378 412.8,378 412.8,378 600.1,485.7 		"/>
		
			<linearGradient id="SVGID_5_" gradientUnits="userSpaceOnUse" x1="708.3787" y1="263.5158" x2="687.2484" y2="222.0375" gradientTransform="matrix(1 0 0 -1 0 612)">
			<stop  offset="0" style="stop-color:#A61214"/>
			<stop  offset="0.7834" style="stop-color:#FF2026"/>
			<stop  offset="0.9302" style="stop-color:#FF2026"/>
		</linearGradient>
		<polygon class="st12" points="773.9,385.7 694.6,340.8 600.1,395.1 678.9,440.4 773.9,385.8 773.9,385.8 773.9,385.8 		"/>
		<g>
			
				<linearGradient id="SVGID_6_" gradientUnits="userSpaceOnUse" x1="629.0138" y1="2073.5051" x2="748.7529" y2="2166.6355" gradientTransform="matrix(1 0 0 1 0 -1824)">
				<stop  offset="0" style="stop-color:#7B0B0C"/>
				<stop  offset="0.8761" style="stop-color:#FF2026"/>
				<stop  offset="0.9302" style="stop-color:#FF2026"/>
			</linearGradient>
			<polygon class="st13" points="773.9,385.7 773.9,314.5 659.1,248.5 659.1,320.6 659.1,320.6 			"/>
			<path class="st5" d="M773.9,385.8L773.9,385.8L773.9,385.8z"/>
		</g>
	</g>
</g>
</svg>
