<?xml version="1.0" encoding="utf-8"?>
<!-- Generator: Adobe Illustrator 23.0.2, SVG Export Plug-In . SVG Version: 6.00 Build 0)  -->
<svg version="1.1" id="Layer_11" xmlns="http://www.w3.org/2000/svg" xmlns:xlink="http://www.w3.org/1999/xlink" x="0px" y="0px"
	 viewBox="0 0 1583.8 544.8" style="enable-background:new 0 0 1583.8 544.8;" xml:space="preserve">
<style type="text/css">
	.st0{fill:#E8222D;}
	.st1{fill:#6D6D6D;}
	.st2{fill:#848484;}
</style>
<g>
	<path class="st0" d="M707.3,145.9c-5.5,0-10.3-0.8-14.6-2.5s-7.9-4.1-11.1-7.3l8.2-14.8c2,2.6,4.5,4.5,7.4,5.9c3,1.3,5.9,2,8.8,2
		c3,0,5.4-1,7.2-3.1c1.8-2,2.8-4.6,2.8-7.8c0-2.9-0.8-5.4-2.3-7.5c-1.5-2.1-3.5-4.1-5.9-6c-2.4-1.8-4.9-3.7-7.6-5.7
		c-2.7-1.9-5.2-4.2-7.6-6.7c-2.4-2.5-4.4-5.5-5.9-9c-1.5-3.5-2.3-7.7-2.3-12.7c0-3.7,0.6-7.2,1.9-10.6c1.2-3.4,3.1-6.3,5.5-8.9
		c2.4-2.5,5.3-4.5,8.7-6c3.4-1.5,7.3-2.2,11.7-2.2c4.2,0,8.1,0.7,11.9,2.1c3.7,1.4,7,3.4,9.8,6l-7.3,14.5c-3.8-3.9-8.3-5.8-13.7-5.8
		c-2.7,0-4.9,0.9-6.6,2.8c-1.7,1.8-2.6,4.3-2.6,7.2c0,2.6,0.8,4.9,2.3,6.9c1.5,2,3.5,3.9,5.9,5.7c2.4,1.8,4.9,3.8,7.6,5.7
		c2.7,2,5.2,4.3,7.6,6.9c2.4,2.6,4.3,5.7,5.9,9.3c1.5,3.6,2.3,7.9,2.3,12.8c0,4.2-0.6,8-1.9,11.6c-1.3,3.5-3.2,6.6-5.6,9.1
		c-2.4,2.5-5.4,4.5-8.8,6C715.4,145.2,711.6,145.9,707.3,145.9z"/>
	<path class="st0" d="M746.6,144.1V44.6h18.8v99.5H746.6z"/>
	<path class="st0" d="M800.6,145.9c-5.5,0-10.3-0.8-14.6-2.5s-7.9-4.1-11.1-7.3l8.2-14.8c2,2.6,4.5,4.5,7.4,5.9c3,1.3,5.9,2,8.8,2
		c3,0,5.4-1,7.2-3.1c1.8-2,2.8-4.6,2.8-7.8c0-2.9-0.8-5.4-2.3-7.5c-1.5-2.1-3.5-4.1-5.9-6c-2.4-1.8-4.9-3.7-7.6-5.7
		c-2.7-1.9-5.2-4.2-7.6-6.7c-2.4-2.5-4.4-5.5-5.9-9c-1.5-3.5-2.3-7.7-2.3-12.7c0-3.7,0.6-7.2,1.9-10.6c1.2-3.4,3.1-6.3,5.5-8.9
		c2.4-2.5,5.3-4.5,8.7-6c3.4-1.5,7.3-2.2,11.7-2.2c4.2,0,8.1,0.7,11.9,2.1c3.7,1.4,7,3.4,9.8,6l-7.3,14.5c-3.8-3.9-8.3-5.8-13.7-5.8
		c-2.7,0-4.9,0.9-6.6,2.8c-1.7,1.8-2.6,4.3-2.6,7.2c0,2.6,0.8,4.9,2.3,6.9c1.5,2,3.5,3.9,5.9,5.7c2.4,1.8,4.9,3.8,7.6,5.7
		c2.7,2,5.2,4.3,7.6,6.9c2.4,2.6,4.3,5.7,5.9,9.3c1.5,3.6,2.3,7.9,2.3,12.8c0,4.2-0.6,8-1.9,11.6c-1.3,3.5-3.2,6.6-5.6,9.1
		c-2.4,2.5-5.4,4.5-8.8,6C808.8,145.2,804.9,145.9,800.6,145.9z"/>
	<path class="st0" d="M848.3,144.1V61.2h-15.1V44.6h48.9v16.6h-15.1v82.9H848.3z"/>
	<path class="st0" d="M892.6,144.1V44.6h43.5v16.6h-24.8v24h23.7v16.6h-23.7v25.8h24.8v16.6H892.6z"/>
	<path class="st0" d="M1006.8,144.1V85.3l-16.6,58.8H984l-16.3-58.8v58.8h-18.8V44.6h23.9l14.3,50.9l14.8-50.9h23.4v99.5H1006.8z"/>
	<path class="st0" d="M1076.9,144.1l-3-18.3h-18.5l-3,18.3H1033l20.7-99.5h21.6l20.9,99.5H1076.9z M1064.6,65.6l-7.2,43.5h14.3
		L1064.6,65.6z"/>
</g>
<g>
	<path class="st0" d="M721.7,272.4l-3-18.3h-18.5l-3,18.3h-19.4l20.7-99.5h21.6l20.9,99.5H721.7z M709.4,194l-7.2,43.5h14.3
		L709.4,194z"/>
	<path class="st0" d="M787.7,272.4l-20.1-52.6v52.6h-18.8v-99.5h18.8l19.1,50.7v-50.7h18.8v99.5H787.7z"/>
	<path class="st0" d="M831,272.4v-82.9h-15.1v-16.6h48.9v16.6h-15.1v82.9H831z"/>
	<path class="st0" d="M875.3,272.4v-99.5h18.8v99.5H875.3z"/>
	<path class="st0" d="M937.6,274.2c-5.5,0-10.2-1.3-14.1-3.9c-3.9-2.6-7.2-6.2-9.7-10.7c-2.5-4.6-4.4-10-5.6-16.3
		c-1.2-6.3-1.8-13.1-1.8-20.5c0-7.5,0.6-14.3,1.8-20.6c1.2-6.3,3.1-11.7,5.6-16.3c2.5-4.6,5.8-8.2,9.7-10.7
		c3.9-2.6,8.6-3.9,14.1-3.9c4,0,7.4,0.7,10.2,2.2c2.8,1.4,5.2,3.3,7.1,5.6c1.9,2.3,3.4,4.8,4.6,7.5c1.2,2.7,2.2,5.4,3,8.1l-14.9,5.5
		c-1.1-3.8-2.3-6.8-3.7-8.9c-1.4-2.2-3.5-3.3-6.3-3.3c-2.3,0-4.2,0.9-5.7,2.6c-1.5,1.7-2.7,4.1-3.7,7.2c-0.9,3-1.6,6.7-2,11
		c-0.4,4.3-0.6,8.9-0.6,14c0,5.1,0.2,9.7,0.6,14c0.4,4.3,1.1,7.9,2,11c0.9,3,2.2,5.4,3.7,7.2c1.5,1.7,3.4,2.6,5.7,2.6
		c3.1,0,5.4-1.4,6.9-4.1c1.5-2.7,2.6-6.2,3.3-10.4l15.1,5.5c-0.7,2.9-1.6,5.8-2.8,8.8c-1.2,3-2.8,5.7-4.7,8.3
		c-1.9,2.5-4.3,4.6-7.2,6.2C945.3,273.4,941.8,274.2,937.6,274.2z"/>
	<path class="st0" d="M1001.4,274.2c-5.5,0-10.2-1.3-14.1-4c-3.9-2.6-7.1-6.2-9.6-10.8c-2.5-4.6-4.3-10-5.5-16.3
		c-1.2-6.3-1.8-13.1-1.8-20.4c0-7.3,0.6-14,1.8-20.4c1.2-6.3,3-11.8,5.5-16.3c2.5-4.6,5.7-8.2,9.6-10.8c3.9-2.6,8.6-4,14.1-4
		s10.1,1.3,14,4c3.9,2.6,7.1,6.2,9.6,10.8c2.5,4.6,4.4,10,5.6,16.3c1.2,6.3,1.8,13.1,1.8,20.4c0,7.4-0.6,14.2-1.8,20.4
		c-1.2,6.3-3.1,11.7-5.6,16.3c-2.5,4.6-5.7,8.2-9.6,10.8C1011.6,272.9,1006.9,274.2,1001.4,274.2z M1001.4,257.5
		c2.2,0,4-0.9,5.5-2.7c1.5-1.8,2.7-4.3,3.7-7.4c0.9-3.1,1.6-6.8,2-11c0.4-4.2,0.6-8.8,0.6-13.6c0-5-0.2-9.6-0.6-13.8
		c-0.4-4.2-1.1-7.9-2-11s-2.2-5.6-3.7-7.3c-1.5-1.7-3.3-2.6-5.5-2.6s-4,0.9-5.5,2.6c-1.5,1.7-2.7,4.2-3.7,7.3c-0.9,3.1-1.6,6.8-2,11
		c-0.4,4.2-0.6,8.8-0.6,13.8c0,4.9,0.2,9.4,0.6,13.6c0.4,4.2,1.1,7.9,2,11c0.9,3.1,2.2,5.6,3.7,7.4
		C997.4,256.6,999.2,257.5,1001.4,257.5z"/>
	<path class="st0" d="M1080.5,272.4l-10.7-36.5h-6.1v36.5h-18.8v-99.5h27.8c4,0,7.6,0.7,11,2.2c3.3,1.5,6.2,3.6,8.6,6.3
		c2.4,2.7,4.3,6,5.6,9.8c1.3,3.8,2,8,2,12.5c0,4.2-0.4,7.8-1.2,11c-0.8,3.1-1.8,5.8-3.1,8c-1.3,2.2-2.7,4-4.2,5.4
		c-1.6,1.4-3,2.4-4.4,3.1l13.8,41.2H1080.5z M1069.7,219.3c3.5,0,6.2-1.4,8.1-4.1c1.9-2.7,2.8-6.3,2.8-10.8c0-4.6-0.9-8.2-2.8-10.9
		c-1.9-2.7-4.6-4-8.1-4h-6.1v29.8H1069.7z"/>
	<path class="st0" d="M1149.1,272.4l-10.7-36.5h-6.1v36.5h-18.8v-99.5h27.8c4,0,7.6,0.7,11,2.2c3.3,1.5,6.2,3.6,8.6,6.3
		c2.4,2.7,4.3,6,5.6,9.8c1.3,3.8,2,8,2,12.5c0,4.2-0.4,7.8-1.2,11c-0.8,3.1-1.8,5.8-3.1,8c-1.3,2.2-2.7,4-4.2,5.4
		c-1.6,1.4-3,2.4-4.4,3.1l13.8,41.2H1149.1z M1138.3,219.3c3.5,0,6.2-1.4,8.1-4.1c1.9-2.7,2.8-6.3,2.8-10.8c0-4.6-0.9-8.2-2.8-10.9
		c-1.9-2.7-4.6-4-8.1-4h-6.1v29.8H1138.3z"/>
	<path class="st0" d="M1210.3,274.2c-3.7,0-7.2-0.6-10.7-1.8s-6.4-3-9-5.5c-2.6-2.5-4.7-5.6-6.3-9.5c-1.6-3.8-2.4-8.4-2.4-13.8
		v-70.7h18.8v71.6c0,4.9,0.9,8.3,2.6,10.2c1.7,1.9,4,2.9,6.9,2.9c2.9,0,5.2-1,6.9-2.9c1.7-1.9,2.6-5.3,2.6-10.2v-71.6h18.8v70.7
		c0,5.4-0.8,10-2.4,13.8c-1.6,3.8-3.7,7-6.3,9.5c-2.6,2.5-5.6,4.3-9,5.5C1217.6,273.6,1214,274.2,1210.3,274.2z"/>
	<path class="st0" d="M1254.2,272.4v-99.5h26.9c4.9,0,9.1,0.8,12.6,2.5c3.5,1.7,6.5,4,8.7,6.9c2.3,2.9,4,6.3,5.1,10.1
		c1.1,3.8,1.6,7.8,1.6,11.9c0,4.2-0.5,8.2-1.6,11.9c-1.1,3.8-2.8,7.1-5.1,10.1c-2.3,2.9-5.2,5.2-8.8,6.9c-3.5,1.7-7.8,2.5-12.7,2.5
		h-8.1v36.5H1254.2z M1279.1,219.3c3.5,0,6.2-1.4,8.1-4.1c1.9-2.7,2.8-6.3,2.8-10.8c0-4.6-0.9-8.2-2.8-10.9c-1.9-2.7-4.6-4-8.1-4
		h-6.1v29.8H1279.1z"/>
	<path class="st0" d="M1348,274.2c-5.5,0-10.2-1.3-14.1-3.9c-3.9-2.6-7.2-6.2-9.7-10.7c-2.5-4.6-4.4-10-5.6-16.3
		c-1.2-6.3-1.8-13.1-1.8-20.5c0-7.5,0.6-14.3,1.8-20.6c1.2-6.3,3.1-11.7,5.6-16.3c2.5-4.6,5.8-8.2,9.7-10.7
		c3.9-2.6,8.6-3.9,14.1-3.9c4,0,7.4,0.7,10.2,2.2c2.8,1.4,5.2,3.3,7.1,5.6c1.9,2.3,3.4,4.8,4.6,7.5c1.2,2.7,2.2,5.4,3,8.1l-14.9,5.5
		c-1.1-3.8-2.3-6.8-3.7-8.9c-1.4-2.2-3.5-3.3-6.3-3.3c-2.3,0-4.2,0.9-5.7,2.6c-1.5,1.7-2.7,4.1-3.7,7.2c-0.9,3-1.6,6.7-2,11
		c-0.4,4.3-0.6,8.9-0.6,14c0,5.1,0.2,9.7,0.6,14c0.4,4.3,1.1,7.9,2,11c0.9,3,2.2,5.4,3.7,7.2c1.5,1.7,3.4,2.6,5.7,2.6
		c3.1,0,5.4-1.4,6.9-4.1c1.5-2.7,2.6-6.2,3.3-10.4l15.1,5.5c-0.7,2.9-1.6,5.8-2.8,8.8c-1.2,3-2.8,5.7-4.7,8.3
		c-1.9,2.5-4.3,4.6-7.2,6.2C1355.7,273.4,1352.2,274.2,1348,274.2z"/>
	<path class="st0" d="M1383.9,272.4v-99.5h18.8v99.5H1383.9z"/>
	<path class="st0" d="M1446.1,274.2c-5.5,0-10.2-1.3-14.1-4c-3.9-2.6-7.1-6.2-9.6-10.8c-2.5-4.6-4.3-10-5.5-16.3
		c-1.2-6.3-1.8-13.1-1.8-20.4c0-7.3,0.6-14,1.8-20.4c1.2-6.3,3-11.8,5.5-16.3c2.5-4.6,5.7-8.2,9.6-10.8c3.9-2.6,8.6-4,14.1-4
		c5.5,0,10.1,1.3,14,4c3.9,2.6,7.1,6.2,9.6,10.8c2.5,4.6,4.4,10,5.6,16.3c1.2,6.3,1.8,13.1,1.8,20.4c0,7.4-0.6,14.2-1.8,20.4
		c-1.2,6.3-3.1,11.7-5.6,16.3c-2.5,4.6-5.7,8.2-9.6,10.8C1456.3,272.9,1451.6,274.2,1446.1,274.2z M1446.1,257.5
		c2.2,0,4-0.9,5.5-2.7c1.5-1.8,2.7-4.3,3.7-7.4c0.9-3.1,1.6-6.8,2-11c0.4-4.2,0.6-8.8,0.6-13.6c0-5-0.2-9.6-0.6-13.8
		c-0.4-4.2-1.1-7.9-2-11s-2.2-5.6-3.7-7.3c-1.5-1.7-3.3-2.6-5.5-2.6s-4,0.9-5.5,2.6c-1.5,1.7-2.7,4.2-3.7,7.3c-0.9,3.1-1.6,6.8-2,11
		c-0.4,4.2-0.6,8.8-0.6,13.8c0,4.9,0.2,9.4,0.6,13.6c0.4,4.2,1.1,7.9,2,11c0.9,3.1,2.2,5.6,3.7,7.4
		C1442.1,256.6,1443.9,257.5,1446.1,257.5z M1450.1,164.6h-10.7l11.8-21.5h14.8L1450.1,164.6z"/>
	<path class="st0" d="M1528.4,272.4l-20.1-52.6v52.6h-18.8v-99.5h18.8l19.1,50.7v-50.7h18.8v99.5H1528.4z"/>
</g>
<g>
	<g>
		<path class="st1" d="M483.4,364.4H199.3C108.7,364.4,35,290.7,35,200.1c0-90.6,73.7-164.3,164.3-164.3h284.1V69H199.3
			C127,69,68.2,127.8,68.2,200.1S127,331.2,199.3,331.2h284.1V364.4z"/>
	</g>
	<g>
		<circle class="st0" cx="439.1" cy="336.6" r="88.6"/>
	</g>
</g>
<g>
	<g>
		<path class="st1" d="M461.2,493.4H177.1v-33.2h284.1c72.3,0,131.1-58.8,131.1-131.1S533.5,198,461.2,198H177.1v-33.2h284.1
			c90.6,0,164.3,73.7,164.3,164.3S551.8,493.4,461.2,493.4z"/>
	</g>
	<g>
		<circle class="st0" cx="221.4" cy="192.7" r="88.6"/>
	</g>
</g>
<g>
	<path class="st2" d="M673.2,341.6c0-3.2,1.5-4.8,4.4-4.8h95.9c1.7,0,3,0.5,3.7,1.5c0.7,1,1.1,2.2,1.1,3.6v17.6
		c0,1.2-0.4,2.3-1.2,3.2s-2.1,1.4-3.7,1.4h-70.8v30.2H757c1.3-0.1,2.4,0.1,3.2,0.8c0.8,0.7,1.2,1.9,1.2,3.5v18c0,1.2-0.3,2.3-1,3.2
		c-0.7,0.9-1.7,1.4-3.2,1.4h-54.7v36.1h73.3c1.9,0,3.1,0.4,3.7,1.2c0.6,0.8,0.9,2,0.9,3.7v18.2c0,2.8-1.5,4.2-4.4,4.2h-98.5
		c-1.2,0-2.2-0.3-3.1-1c-0.9-0.7-1.3-1.7-1.3-3.2V341.6z"/>
	<path class="st2" d="M926.9,410.8c0,6.9-0.9,13.5-2.7,19.9c-1.8,6.3-4.3,12.2-7.6,17.7c-3.3,5.5-7.2,10.4-11.7,14.9
		c-4.5,4.4-9.6,8.2-15.2,11.4s-11.6,5.6-18,7.3c-6.4,1.7-13.1,2.6-20.1,2.6h-47.8c-1.2,0-2.3-0.3-3.2-0.8c-0.9-0.5-1.4-1.7-1.4-3.4
		V341.5c0-3.1,1.5-4.7,4.6-4.7h47.8c10.6,0,20.4,1.9,29.5,5.7s17.1,9.1,23.9,15.7c6.8,6.7,12.1,14.5,16,23.5
		C925,390.7,926.9,400.4,926.9,410.8z M828.1,364v93.2h9.5c5,0,10-0.1,14.9-0.3c6.6-0.2,12.6-1.5,18.2-4c5.6-2.5,10.4-5.8,14.5-10
		c4.1-4.2,7.3-9.1,9.6-14.7c2.3-5.6,3.4-11.6,3.4-18.1c0-6.8-1.2-13.1-3.7-18.8c-2.5-5.7-5.9-10.5-10.2-14.6
		c-4.3-4.1-9.4-7.2-15.1-9.4c-5.8-2.2-11.9-3.3-18.4-3.3H828.1z"/>
	<path class="st2" d="M944.1,410.8c0-7,0.9-13.7,2.7-20.2c1.8-6.5,4.3-12.6,7.7-18.2c3.3-5.6,7.3-10.8,11.9-15.4
		c4.6-4.6,9.7-8.6,15.4-11.9c5.6-3.3,11.7-5.8,18.2-7.7c6.5-1.8,13.2-2.7,20.2-2.7c7,0,13.7,0.9,20.2,2.7c6.5,1.8,12.5,4.4,18.2,7.7
		c5.6,3.3,10.8,7.2,15.4,11.9c4.6,4.6,8.6,9.8,11.9,15.4c3.3,5.6,5.8,11.7,7.7,18.2c1.8,6.5,2.7,13.3,2.7,20.3s-0.9,13.8-2.7,20.2
		c-1.8,6.4-4.4,12.5-7.7,18.1c-3.3,5.6-7.3,10.8-11.9,15.4c-4.6,4.6-9.8,8.6-15.4,11.8c-5.6,3.3-11.7,5.8-18.2,7.6
		c-6.5,1.8-13.2,2.7-20.2,2.7c-7,0-13.8-0.9-20.3-2.7c-6.5-1.8-12.5-4.3-18.2-7.7c-5.6-3.3-10.8-7.3-15.4-11.9
		c-4.6-4.6-8.6-9.7-11.8-15.3c-3.3-5.6-5.8-11.6-7.6-18.1C945,424.6,944.1,417.8,944.1,410.8z M972.9,410.6c0,6.7,1.2,13,3.6,18.8
		c2.4,5.8,5.7,10.9,10,15.2c4.2,4.3,9.2,7.7,14.9,10.2c5.7,2.5,12,3.8,18.7,3.8c6.6,0,12.8-1.3,18.6-3.8c5.7-2.5,10.7-5.9,15-10.2
		c4.2-4.3,7.6-9.4,10-15.2c2.4-5.8,3.6-12.1,3.6-18.8c0-6.6-1.2-12.9-3.6-18.7c-2.4-5.8-5.8-10.9-10-15.3c-4.2-4.3-9.2-7.8-15-10.3
		c-5.7-2.5-11.9-3.8-18.6-3.8c-6.7,0-12.9,1.3-18.7,3.8c-5.7,2.5-10.7,6-14.9,10.3c-4.2,4.3-7.5,9.4-10,15.3
		C974.1,397.8,972.9,404,972.9,410.6z"/>
	<path class="st2" d="M1126.6,341.2c0.1-1.3,0.6-2.3,1.5-3.1c0.9-0.8,2-1.2,3.3-1.2h24.9c2.3,0,3.8,1.3,4.6,3.8l35.1,97.9
		c5.9-16.5,11.8-32.8,17.8-49c5.9-16.2,11.8-32.5,17.7-49c0.9-2.5,2.5-3.8,4.6-3.8h25c1.3,0,2.4,0.4,3.2,1.3
		c0.8,0.9,1.3,1.9,1.3,3.1c2.5,23.3,4.9,46.5,7.5,69.6c2.5,23.1,5,46.2,7.6,69.5v0.3c0,2.7-1.5,4.1-4.4,4.1h-19.3
		c-3,0-4.5-1.5-4.7-4.4l-10.1-94.1l-33.1,91.6c-0.3,0.9-0.9,1.8-1.6,2.6c-0.7,0.8-1.5,1.2-2.3,1.2h-17.9c-0.9,0-1.7-0.4-2.4-1.1
		c-0.7-0.8-1.3-1.6-1.6-2.6c-5.4-15.3-10.9-30.6-16.4-45.7c-5.5-15.1-11-30.4-16.6-45.8l-10.1,94c0,2.9-1.5,4.4-4.6,4.4h-19.3
		c-2.9,0-4.4-1.5-4.4-4.4L1126.6,341.2z"/>
	<path class="st2" d="M1302.1,341.6c0-3.2,1.5-4.8,4.4-4.8h95.9c1.7,0,3,0.5,3.7,1.5c0.7,1,1.1,2.2,1.1,3.6v17.6
		c0,1.2-0.4,2.3-1.2,3.2c-0.8,0.9-2.1,1.4-3.7,1.4h-70.8v30.2h54.5c1.3-0.1,2.4,0.1,3.2,0.8c0.8,0.7,1.2,1.9,1.2,3.5v18
		c0,1.2-0.3,2.3-1,3.2s-1.7,1.4-3.2,1.4h-54.7v36.1h73.3c1.9,0,3.1,0.4,3.7,1.2c0.6,0.8,0.9,2,0.9,3.7v18.2c0,2.8-1.5,4.2-4.4,4.2
		h-98.5c-1.2,0-2.2-0.3-3.1-1c-0.9-0.7-1.3-1.7-1.3-3.2V341.6z M1353.9,292.3c0.5-1.5,1.3-2.5,2.2-3.2c1-0.7,2-1,3.1-1h17.7
		c1.1,0,1.8,0.2,2.2,0.7c0.4,0.5,0.6,1.1,0.6,1.8c0,0.5,0,1.1-0.1,1.7c-0.1,0.6-0.3,1.2-0.5,1.8l-9.5,21.1c-1.3,2.8-3,4.2-5.3,4.2
		h-15.5c-1.1,0-1.9-0.3-2.2-0.8c-0.3-0.5-0.5-1.2-0.5-1.9c0-0.7,0-1.3,0.1-2s0.3-1.4,0.6-2.1L1353.9,292.3z"/>
	<path class="st2" d="M1417.5,481.1c0.7-1.1,1.3-2.1,2-3.2c0.7-1.1,1.4-2.2,2.1-3.3l43.7-64.6c-8-11.9-16-23.7-23.8-35.4
		c-7.9-11.7-15.3-22.7-22.3-33.1l-0.5-0.7c-0.6-1-0.9-1.8-0.9-2.3c0-0.7,0.4-1.1,1.1-1.2c0.7-0.1,1.6-0.2,2.5-0.3h23.5
		c1.5,0,2.7,0.3,3.6,0.9c1,0.6,1.9,1.7,2.9,3.1l30.2,44.8l30.4-44.8c1.1-1.5,2.1-2.5,3-3.1c1-0.6,2.2-0.9,3.6-0.9h23.7
		c1.1,0.1,1.9,0.2,2.4,0.4c0.5,0.2,0.8,0.7,0.8,1.3c0,0.6-0.4,1.5-1.2,2.7c-7.1,10.4-14.6,21.5-22.6,33.2
		c-8,11.7-15.9,23.5-23.9,35.5l47,69.5c0.6,0.9,1,1.7,1.1,2.3c0.2,0.6,0.2,1.1,0.2,1.4c0,0.9-0.7,1.4-2.2,1.4h-25.1
		c-0.9,0-1.7-0.2-2.4-0.5c-0.7-0.3-1.3-0.8-1.9-1.4c-0.6-0.6-1.2-1.3-1.7-2.2c-0.6-0.9-1.2-1.8-1.9-2.9c-5-7.3-9.9-14.6-14.7-21.8
		c-4.8-7.2-9.7-14.5-14.7-21.8c-5.3,7.8-10.6,15.6-15.8,23.4c-5.2,7.8-10.4,15.6-15.7,23.4c-1.5,2.5-3.3,3.7-5.6,3.7h-25.3
		c-1.5,0-2.2-0.5-2.2-1.5c0-0.2,0.1-0.6,0.2-1.1C1417.3,481.4,1417.4,481.1,1417.5,481.1z"/>
</g>
</svg>
