<?xml version="1.0" encoding="utf-8"?>
<!-- Generator: Adobe Illustrator 23.0.2, SVG Export Plug-In . SVG Version: 6.00 Build 0)  -->
<svg version="1.1" id="Capa_3" xmlns="http://www.w3.org/2000/svg" xmlns:xlink="http://www.w3.org/1999/xlink" x="0px" y="0px"
	 viewBox="0 0 512 512" style="enable-background:new 0 0 512 512;" xml:space="preserve">
<style type="text/css">
	.st0{fill:#E8222D;}
	.st1{fill:#6D6D6D;}
</style>
<path class="st0" d="M336,197v100c0,11-9,20-20,20H196c-11,0-20-9-20-20V197c0-11,9-20,20-20h120C327,177,336,186,336,197z"/>
<g>
	<path class="st1" d="M426,37H86c-38.6,0-70,31.4-70,70v240c0,38.6,31.4,70,70,70h115.3l47,56.4c1.9,2.3,4.7,3.6,7.7,3.6
		s5.8-1.3,7.7-3.6l47-56.4H426c38.6,0,70-31.4,70-70V107C496,68.4,464.6,37,426,37z M476,347c0,27.6-22.4,50-50,50H306
		c-3,0-5.8,1.3-7.7,3.6L256,451.4l-42.3-50.8c-1.9-2.3-4.7-3.6-7.7-3.6H86c-27.6,0-50-22.4-50-50V107c0-27.6,22.4-50,50-50h340
		c27.6,0,50,22.4,50,50V347z"/>
	<path class="st1" d="M316,167h-10v-30c0-13-10.3-20-20-20h-60c-13,0-20,10.3-20,20v30h-10c-16.5,0-30,13.5-30,30v100
		c0,16.5,13.5,30,30,30h120c16.5,0,30-13.5,30-30V197C346,180.5,332.5,167,316,167z M326,297c0,5.5-4.5,10-10,10H196
		c-5.5,0-10-4.5-10-10V197c0-5.5,4.5-10,10-10h60c5.5,0,10-4.5,10-10s-4.5-10-10-10h-30v-30h60v40c0,5.5,4.5,10,10,10h20
		c5.5,0,10,4.5,10,10V297z"/>
	<path class="st1" d="M276,217h-40c-5.5,0-10,4.5-10,10s4.5,10,10,10h10v30c0,5.5,4.5,10,10,10s10-4.5,10-10v-30h10
		c5.5,0,10-4.5,10-10S281.5,217,276,217z"/>
</g>
</svg>
