<?xml version="1.0" encoding="utf-8"?>
<!-- Generator: Adobe Illustrator 23.0.2, SVG Export Plug-In . SVG Version: 6.00 Build 0)  -->
<svg version="1.1" id="Capa_6" xmlns="http://www.w3.org/2000/svg" xmlns:xlink="http://www.w3.org/1999/xlink" x="0px" y="0px"
	 viewBox="0 0 512 512" style="enable-background:new 0 0 512 512;" xml:space="preserve">
<style type="text/css">
	.st0{fill:#E8222D;}
	.st1{fill:#6D6D6D;stroke:#642440;stroke-width:0.25;stroke-miterlimit:10;}
</style>
<polygon class="st0" points="325,472.4 187,472.4 187,455.2 324.9,455.2 324.9,472.4 "/>
<g>
	<path class="st0" d="M426.6,233.7l0.5,0.5c-13.4,13.4-32,21.7-52.5,21.7c-5,0-10-0.5-14.8-1.5V184c4.7-1.4,9.6-2.2,14.8-2.2
		C403.4,181.8,426.6,205,426.6,233.7z"/>
	<path class="st0" d="M152.1,184v70.6c-4.8,1-9.8,1.5-14.8,1.5c-20.5,0-39-8.3-52.5-21.7l0.5-0.5c0-28.7,23.2-51.9,51.9-51.9
		C142.5,181.8,147.5,182.5,152.1,184z"/>
	<path class="st0" d="M307.9,189.2l0.5,0.5c-13.4,13.4-32,21.7-52.5,21.7s-39-8.3-52.5-21.7l0.5-0.5c0-28.7,23.2-51.9,51.9-51.9
		c14.4,0,27.3,5.8,36.7,15.2C302.2,161.9,307.9,174.8,307.9,189.2z"/>
	<g>
		<path class="st1" d="M256,218.9c45,0,81.6-36.6,81.6-81.6S301,55.7,256,55.7s-81.6,36.6-81.6,81.6S211,218.9,256,218.9z
			 M256,204.1c-17.1,0-32.6-6.5-44.4-17c1.2-23.5,20.6-42.3,44.4-42.3s43.2,18.8,44.4,42.3C288.6,197.6,273.1,204.1,256,204.1z
			 M241.2,115c0-8.2,6.7-14.8,14.8-14.8c8.2,0,14.8,6.7,14.8,14.8c0,8.2-6.7,14.8-14.8,14.8C247.8,129.9,241.2,123.2,241.2,115z
			 M256,70.5c36.8,0,66.8,30,66.8,66.8c0,12.8-3.7,24.7-9.9,34.9c-5.2-17.2-18-31.1-34.4-37.9c4.5-5.2,7.3-11.9,7.3-19.3
			c0-16.4-13.3-29.7-29.7-29.7s-29.7,13.3-29.7,29.7c0,7.4,2.8,14.1,7.3,19.3c-16.5,6.7-29.3,20.7-34.4,37.9
			c-6.3-10.2-9.9-22.1-9.9-34.9C189.2,100.5,219.2,70.5,256,70.5z"/>
		<rect x="70.5" y="441.5" class="st1" width="14.8" height="14.8"/>
		<rect x="70.5" y="471.2" class="st1" width="14.8" height="14.8"/>
		<rect x="100.2" y="352.5" class="st1" width="14.8" height="133.5"/>
		<rect x="129.9" y="411.8" class="st1" width="14.8" height="14.8"/>
		<rect x="129.9" y="441.5" class="st1" width="14.8" height="44.5"/>
		<rect x="174.4" y="248.6" class="st1" width="14.8" height="14.8"/>
		<rect x="204.1" y="248.6" class="st1" width="44.5" height="14.8"/>
		<rect x="174.4" y="278.3" class="st1" width="74.2" height="14.8"/>
		<rect x="55.7" y="293.1" class="st1" width="74.2" height="14.8"/>
		<rect x="55.7" y="322.8" class="st1" width="74.2" height="14.8"/>
		<path class="st1" d="M367.3,70.5V26H144.7v44.5H26v296.8h44.5v59.4h14.8v-74.2H40.8V85.4h103.9v15.2c-2.5-0.2-4.9-0.4-7.4-0.4
			c-45,0-81.6,36.6-81.6,81.6s36.6,81.6,81.6,81.6c2.5,0,4.9-0.1,7.4-0.4v59.7h29.7v29.7h-44.5V397h14.8v-29.7h29.7v9.9
			c0,4.8,1.6,9.5,4.5,13.4l16.3,21.8c1,1.3,1.5,2.9,1.5,4.5v24.7h-14.8V486h148.4v-44.5h-14.8v-24.7c0-1.6,0.5-3.2,1.5-4.5
			l16.3-21.8c2.9-3.8,4.5-8.6,4.5-13.4v-9.9h29.7V397h14.8v-44.5h-44.5v-29.7h29.7V263c2.5,0.2,4.9,0.4,7.4,0.4
			c45,0,81.6-36.6,81.6-81.6s-36.6-81.6-81.6-81.6c-2.5,0-4.9,0.1-7.4,0.4V85.4h103.9v267.1h-44.5v74.2h14.8v-59.4H486V70.5H367.3z
			 M144.7,248.1c-2.5,0.3-4.9,0.4-7.4,0.4c-17.1,0-32.6-6.5-44.4-17c1.2-23.5,20.6-42.3,44.4-42.3c2.5,0,5,0.3,7.4,0.7V248.1z
			 M144.7,172.4c-2.2,1.3-4.8,2-7.4,2c-8.2,0-14.8-6.7-14.8-14.8c0-8.2,6.7-14.8,14.8-14.8c2.6,0,5.2,0.7,7.4,2V172.4z M144.7,130.9
			c-2.4-0.6-4.9-1.1-7.4-1.1c-16.4,0-29.7,13.3-29.7,29.7c0,7.4,2.8,14.1,7.3,19.3c-16.5,6.7-29.3,20.7-34.4,37.9
			c-6.3-10.2-9.9-22.1-9.9-34.9c0-36.8,30-66.8,66.8-66.8c2.5,0,5,0.2,7.4,0.4v15.5H144.7z M315.4,471.2H196.6v-14.8h118.7v14.8
			H315.4z M322.8,377.2c0,1.6-0.5,3.2-1.5,4.5L305,403.4c-2.9,3.8-4.5,8.6-4.5,13.4v24.7h-89v-24.7c0-4.8-1.6-9.5-4.5-13.4
			l-16.3-21.8c-1-1.3-1.5-2.9-1.5-4.5v-54.4H204v37.1h14.8v-37.1h14.8v37.1h14.8v-37.1H276c-8.1,10.6-12.6,23.5-12.6,37.1h14.8
			c0-12.4,4.8-24,13.6-32.8l8.7-8.7v-35.8l-19.8-19.8c-1.6-1.6-2.4-3.7-2.4-5.9c0-4.6,3.7-8.3,8.3-8.3h1c1.9,0,3.7,0.6,5.2,1.8
			l27.2,21.8c1.8,1.4,2.8,3.5,2.8,5.8L322.8,377.2L322.8,377.2z M352.5,307.9h-14.8v-30c0-6.8-3-13.1-8.4-17.4L302,238.8
			c-4.1-3.3-9.2-5.1-14.5-5.1h-1c-12.8,0-23.2,10.4-23.2,23.2c0,6.1,2.5,12.1,6.8,16.4l15.5,15.5V308H159.5V40.8h192.9v267.1H352.5z
			 M367.3,146.7c2.2-1.3,4.8-2,7.4-2c8.2,0,14.8,6.7,14.8,14.8c0,8.2-6.7,14.8-14.8,14.8c-2.6,0-5.2-0.7-7.4-2V146.7z M374.7,248.6
			c-2.5,0-5-0.2-7.4-0.4V190c2.4-0.4,4.9-0.7,7.4-0.7c23.8,0,43.2,18.8,44.4,42.3C407.3,242.1,391.8,248.6,374.7,248.6z M374.7,115
			c36.8,0,66.8,30,66.8,66.8c0,12.8-3.7,24.7-9.9,34.9c-5.2-17.2-18-31.1-34.4-37.9c4.5-5.2,7.3-11.9,7.3-19.3
			c0-16.4-13.3-29.7-29.7-29.7c-2.5,0-5,0.4-7.4,1.1v-15.5C369.8,115.2,372.2,115,374.7,115z"/>
		<rect x="426.6" y="441.5" class="st1" width="14.8" height="14.8"/>
		<rect x="426.6" y="471.2" class="st1" width="14.8" height="14.8"/>
		<rect x="397" y="352.5" class="st1" width="14.8" height="133.5"/>
		<rect x="367.3" y="411.8" class="st1" width="14.8" height="14.8"/>
		<rect x="367.3" y="441.5" class="st1" width="14.8" height="44.5"/>
		<rect x="382.1" y="293.1" class="st1" width="74.2" height="14.8"/>
		<rect x="382.1" y="322.8" class="st1" width="74.2" height="14.8"/>
	</g>
</g>
</svg>
